<?xml version="1.0" encoding="UTF-8" standalone="no"?>
<!-- Created with Inkscape (http://www.inkscape.org/) -->

<svg
   width="297mm"
   height="420mm"
   viewBox="0 0 297 420"
   version="1.1"
   id="svg8920"
   xml:space="preserve"
   inkscape:version="1.2.1 (9c6d41e410, 2022-07-14, custom)"
   sodipodi:docname="spiral_o.svg"
   xmlns:inkscape="http://www.inkscape.org/namespaces/inkscape"
   xmlns:sodipodi="http://sodipodi.sourceforge.net/DTD/sodipodi-0.dtd"
   xmlns="http://www.w3.org/2000/svg"
   xmlns:svg="http://www.w3.org/2000/svg"><sodipodi:namedview
     id="namedview8922"
     pagecolor="#ffffff"
     bordercolor="#666666"
     borderopacity="1.0"
     inkscape:showpageshadow="2"
     inkscape:pageopacity="0.0"
     inkscape:pagecheckerboard="0"
     inkscape:deskcolor="#d1d1d1"
     inkscape:document-units="mm"
     showgrid="false"
     showguides="true"
     inkscape:zoom="0.20480561"
     inkscape:cx="-100.09491"
     inkscape:cy="436.99975"
     inkscape:window-width="1920"
     inkscape:window-height="1054"
     inkscape:window-x="0"
     inkscape:window-y="26"
     inkscape:window-maximized="1"
     inkscape:current-layer="layer1"><inkscape:grid
       type="xygrid"
       id="grid9870"
       originx="0"
       originy="0" /></sodipodi:namedview><defs
     id="defs8917" /><g
     inkscape:label="Layer 1"
     inkscape:groupmode="layer"
     id="layer1"><g
       transform="matrix(0.00135375,-0.0163055,0.0195667,0.00162451,96.651822,210.80734)"
       style="fill:none;stroke:#000000;stroke-width:167.364;stroke-dasharray:none;stroke-opacity:1"
       id="g76965"><path
         style="display:inline;fill:none;fill-rule:evenodd;stroke:#000000;stroke-width:167.364;stroke-linecap:butt;stroke-linejoin:miter;stroke-miterlimit:4;stroke-dasharray:none;stroke-opacity:1"
         d="M 514.29434,663.75007 C 332.77511,662.6941 212.55561,799.43258 212.55561,1182.4491 c 0,383.0166 112.75163,526.6991 301.73873,526.6991 186.73329,0 299.75002,-143.701 299.75002,-526.699 0,-384.05117 -110.63301,-518.69913 -299.75002,-518.69913 z"
         id="path76961"
         inkscape:connector-curvature="0"
         sodipodi:nodetypes="ccscc"
         class="int" /><path
         style="display:inline;fill:none;fill-rule:evenodd;stroke:#000000;stroke-width:167.364;stroke-linecap:butt;stroke-linejoin:miter;stroke-miterlimit:4;stroke-dasharray:none;stroke-opacity:1"
         d="M 512.72445,1727.6206 C 286.39253,1726.1125 179.909,1511.2387 179.909,1182.4491 c 0,-328.9385 97.8919,-535.39573 290.95086,-538.6894 h 84.59879 c 193.08602,0 290.98835,209.67649 290.98835,538.6894 0,329.013 -106.70329,546.6842 -333.72255,545.1715 z"
         id="path76963"
         inkscape:connector-curvature="0"
         sodipodi:nodetypes="cccccc"
         class="ext" /></g><g
       transform="matrix(0.0162214,-0.0021341,0.00256093,0.0194657,129.52402,162.53034)"
       style="fill:none;stroke:#000000;stroke-width:167.364;stroke-dasharray:none;stroke-opacity:1"
       id="g76971"><path
         style="display:inline;fill:none;fill-rule:evenodd;stroke:#000000;stroke-width:167.364;stroke-linecap:butt;stroke-linejoin:miter;stroke-miterlimit:4;stroke-dasharray:none;stroke-opacity:1"
         d="M 514.29434,663.75007 C 332.77511,662.6941 212.55561,799.43258 212.55561,1182.4491 c 0,383.0166 112.75163,526.6991 301.73873,526.6991 186.73329,0 299.75002,-143.701 299.75002,-526.699 0,-384.05117 -110.63301,-518.69913 -299.75002,-518.69913 z"
         id="path76967"
         inkscape:connector-curvature="0"
         sodipodi:nodetypes="ccscc"
         class="int" /><path
         style="display:inline;fill:none;fill-rule:evenodd;stroke:#000000;stroke-width:167.364;stroke-linecap:butt;stroke-linejoin:miter;stroke-miterlimit:4;stroke-dasharray:none;stroke-opacity:1"
         d="M 512.72445,1727.6206 C 286.39253,1726.1125 179.909,1511.2387 179.909,1182.4491 c 0,-328.9385 97.8919,-535.39573 290.95086,-538.6894 h 84.59879 c 193.08602,0 290.98835,209.67649 290.98835,538.6894 0,329.013 -106.70329,546.6842 -333.72255,545.1715 z"
         id="path76969"
         inkscape:connector-curvature="0"
         sodipodi:nodetypes="cccccc"
         class="ext" /></g><g
       transform="matrix(0.0105792,0.0124802,-0.0149763,0.0126951,180.44802,174.83134)"
       style="fill:none;stroke:#000000;stroke-width:167.364;stroke-dasharray:none;stroke-opacity:1"
       id="g76977"><path
         style="display:inline;fill:none;fill-rule:evenodd;stroke:#000000;stroke-width:167.364;stroke-linecap:butt;stroke-linejoin:miter;stroke-miterlimit:4;stroke-dasharray:none;stroke-opacity:1"
         d="M 514.29434,663.75007 C 332.77511,662.6941 212.55561,799.43258 212.55561,1182.4491 c 0,383.0166 112.75163,526.6991 301.73873,526.6991 186.73329,0 299.75002,-143.701 299.75002,-526.699 0,-384.05117 -110.63301,-518.69913 -299.75002,-518.69913 z"
         id="path76973"
         inkscape:connector-curvature="0"
         sodipodi:nodetypes="ccscc"
         class="int" /><path
         style="display:inline;fill:none;fill-rule:evenodd;stroke:#000000;stroke-width:167.364;stroke-linecap:butt;stroke-linejoin:miter;stroke-miterlimit:4;stroke-dasharray:none;stroke-opacity:1"
         d="M 512.72445,1727.6206 C 286.39253,1726.1125 179.909,1511.2387 179.909,1182.4491 c 0,-328.9385 97.8919,-535.39573 290.95086,-538.6894 h 84.59879 c 193.08602,0 290.98835,209.67649 290.98835,538.6894 0,329.013 -106.70329,546.6842 -333.72255,545.1715 z"
         id="path76975"
         inkscape:connector-curvature="0"
         sodipodi:nodetypes="cccccc"
         class="ext" /></g><g
       transform="matrix(-0.00273504,0.0161314,-0.0193578,-0.00328206,199.54202,221.02734)"
       style="fill:none;stroke:#000000;stroke-width:167.364;stroke-dasharray:none;stroke-opacity:1"
       id="g76983"><path
         style="display:inline;fill:none;fill-rule:evenodd;stroke:#000000;stroke-width:167.364;stroke-linecap:butt;stroke-linejoin:miter;stroke-miterlimit:4;stroke-dasharray:none;stroke-opacity:1"
         d="M 514.29434,663.75007 C 332.77511,662.6941 212.55561,799.43258 212.55561,1182.4491 c 0,383.0166 112.75163,526.6991 301.73873,526.6991 186.73329,0 299.75002,-143.701 299.75002,-526.699 0,-384.05117 -110.63301,-518.69913 -299.75002,-518.69913 z"
         id="path76979"
         inkscape:connector-curvature="0"
         sodipodi:nodetypes="ccscc"
         class="int" /><path
         style="display:inline;fill:none;fill-rule:evenodd;stroke:#000000;stroke-width:167.364;stroke-linecap:butt;stroke-linejoin:miter;stroke-miterlimit:4;stroke-dasharray:none;stroke-opacity:1"
         d="M 512.72445,1727.6206 C 286.39253,1726.1125 179.909,1511.2387 179.909,1182.4491 c 0,-328.9385 97.8919,-535.39573 290.95086,-538.6894 h 84.59879 c 193.08602,0 290.98835,209.67649 290.98835,538.6894 0,329.013 -106.70329,546.6842 -333.72255,545.1715 z"
         id="path76981"
         inkscape:connector-curvature="0"
         sodipodi:nodetypes="cccccc"
         class="ext" /></g><g
       transform="matrix(-0.0129964,0.0099386,-0.0119264,-0.0155957,180.72502,264.91734)"
       style="fill:none;stroke:#000000;stroke-width:167.364;stroke-dasharray:none;stroke-opacity:1"
       id="g76989"><path
         style="display:inline;fill:none;fill-rule:evenodd;stroke:#000000;stroke-width:167.364;stroke-linecap:butt;stroke-linejoin:miter;stroke-miterlimit:4;stroke-dasharray:none;stroke-opacity:1"
         d="M 514.29434,663.75007 C 332.77511,662.6941 212.55561,799.43258 212.55561,1182.4491 c 0,383.0166 112.75163,526.6991 301.73873,526.6991 186.73329,0 299.75002,-143.701 299.75002,-526.699 0,-384.05117 -110.63301,-518.69913 -299.75002,-518.69913 z"
         id="path76985"
         inkscape:connector-curvature="0"
         sodipodi:nodetypes="ccscc"
         class="int" /><path
         style="display:inline;fill:none;fill-rule:evenodd;stroke:#000000;stroke-width:167.364;stroke-linecap:butt;stroke-linejoin:miter;stroke-miterlimit:4;stroke-dasharray:none;stroke-opacity:1"
         d="M 512.72445,1727.6206 C 286.39253,1726.1125 179.909,1511.2387 179.909,1182.4491 c 0,-328.9385 97.8919,-535.39573 290.95086,-538.6894 h 84.59879 c 193.08602,0 290.98835,209.67649 290.98835,538.6894 0,329.013 -106.70329,546.6842 -333.72255,545.1715 z"
         id="path76987"
         inkscape:connector-curvature="0"
         sodipodi:nodetypes="cccccc"
         class="ext" /></g><g
       transform="matrix(-0.0163615,4.46453e-6,-5.35745e-6,-0.0196339,139.76902,285.06134)"
       style="fill:none;stroke:#000000;stroke-width:167.364;stroke-dasharray:none;stroke-opacity:1"
       id="g76995"><path
         style="display:inline;fill:none;fill-rule:evenodd;stroke:#000000;stroke-width:167.364;stroke-linecap:butt;stroke-linejoin:miter;stroke-miterlimit:4;stroke-dasharray:none;stroke-opacity:1"
         d="M 514.29434,663.75007 C 332.77511,662.6941 212.55561,799.43258 212.55561,1182.4491 c 0,383.0166 112.75163,526.6991 301.73873,526.6991 186.73329,0 299.75002,-143.701 299.75002,-526.699 0,-384.05117 -110.63301,-518.69913 -299.75002,-518.69913 z"
         id="path76991"
         inkscape:connector-curvature="0"
         sodipodi:nodetypes="ccscc"
         class="int" /><path
         style="display:inline;fill:none;fill-rule:evenodd;stroke:#000000;stroke-width:167.364;stroke-linecap:butt;stroke-linejoin:miter;stroke-miterlimit:4;stroke-dasharray:none;stroke-opacity:1"
         d="M 512.72445,1727.6206 C 286.39253,1726.1125 179.909,1511.2387 179.909,1182.4491 c 0,-328.9385 97.8919,-535.39573 290.95086,-538.6894 h 84.59879 c 193.08602,0 290.98835,209.67649 290.98835,538.6894 0,329.013 -106.70329,546.6842 -333.72255,545.1715 z"
         id="path76993"
         inkscape:connector-curvature="0"
         sodipodi:nodetypes="cccccc"
         class="ext" /></g><g
       transform="matrix(-0.0138416,-0.00872453,0.0104695,-0.0166099,96.722522,277.68034)"
       style="fill:none;stroke:#000000;stroke-width:167.364;stroke-dasharray:none;stroke-opacity:1"
       id="g77001"><path
         style="display:inline;fill:none;fill-rule:evenodd;stroke:#000000;stroke-width:167.364;stroke-linecap:butt;stroke-linejoin:miter;stroke-miterlimit:4;stroke-dasharray:none;stroke-opacity:1"
         d="M 514.29434,663.75007 C 332.77511,662.6941 212.55561,799.43258 212.55561,1182.4491 c 0,383.0166 112.75163,526.6991 301.73873,526.6991 186.73329,0 299.75002,-143.701 299.75002,-526.699 0,-384.05117 -110.63301,-518.69913 -299.75002,-518.69913 z"
         id="path76997"
         inkscape:connector-curvature="0"
         sodipodi:nodetypes="ccscc"
         class="int" /><path
         style="display:inline;fill:none;fill-rule:evenodd;stroke:#000000;stroke-width:167.364;stroke-linecap:butt;stroke-linejoin:miter;stroke-miterlimit:4;stroke-dasharray:none;stroke-opacity:1"
         d="M 512.72445,1727.6206 C 286.39253,1726.1125 179.909,1511.2387 179.909,1182.4491 c 0,-328.9385 97.8919,-535.39573 290.95086,-538.6894 h 84.59879 c 193.08602,0 290.98835,209.67649 290.98835,538.6894 0,329.013 -106.70329,546.6842 -333.72255,545.1715 z"
         id="path76999"
         inkscape:connector-curvature="0"
         sodipodi:nodetypes="cccccc"
         class="ext" /></g><g
       transform="matrix(-0.00718357,-0.0146997,0.0176397,-0.00862031,64.488022,248.54134)"
       style="fill:none;stroke:#000000;stroke-width:167.364;stroke-dasharray:none;stroke-opacity:1"
       id="g77007"><path
         style="display:inline;fill:none;fill-rule:evenodd;stroke:#000000;stroke-width:167.364;stroke-linecap:butt;stroke-linejoin:miter;stroke-miterlimit:4;stroke-dasharray:none;stroke-opacity:1"
         d="M 514.29434,663.75007 C 332.77511,662.6941 212.55561,799.43258 212.55561,1182.4491 c 0,383.0166 112.75163,526.6991 301.73873,526.6991 186.73329,0 299.75002,-143.701 299.75002,-526.699 0,-384.05117 -110.63301,-518.69913 -299.75002,-518.69913 z"
         id="path77003"
         inkscape:connector-curvature="0"
         sodipodi:nodetypes="ccscc"
         class="int" /><path
         style="display:inline;fill:none;fill-rule:evenodd;stroke:#000000;stroke-width:167.364;stroke-linecap:butt;stroke-linejoin:miter;stroke-miterlimit:4;stroke-dasharray:none;stroke-opacity:1"
         d="M 512.72445,1727.6206 C 286.39253,1726.1125 179.909,1511.2387 179.909,1182.4491 c 0,-328.9385 97.8919,-535.39573 290.95086,-538.6894 h 84.59879 c 193.08602,0 290.98835,209.67649 290.98835,538.6894 0,329.013 -106.70329,546.6842 -333.72255,545.1715 z"
         id="path77005"
         inkscape:connector-curvature="0"
         sodipodi:nodetypes="cccccc"
         class="ext" /></g><g
       transform="matrix(0.00108536,-0.0163256,0.0195907,0.00130244,52.312522,207.58834)"
       style="fill:none;stroke:#000000;stroke-width:167.364;stroke-dasharray:none;stroke-opacity:1"
       id="g77013"><path
         style="display:inline;fill:none;fill-rule:evenodd;stroke:#000000;stroke-width:167.364;stroke-linecap:butt;stroke-linejoin:miter;stroke-miterlimit:4;stroke-dasharray:none;stroke-opacity:1"
         d="M 514.29434,663.75007 C 332.77511,662.6941 212.55561,799.43258 212.55561,1182.4491 c 0,383.0166 112.75163,526.6991 301.73873,526.6991 186.73329,0 299.75002,-143.701 299.75002,-526.699 0,-384.05117 -110.63301,-518.69913 -299.75002,-518.69913 z"
         id="path77009"
         inkscape:connector-curvature="0"
         sodipodi:nodetypes="ccscc"
         class="int" /><path
         style="display:inline;fill:none;fill-rule:evenodd;stroke:#000000;stroke-width:167.364;stroke-linecap:butt;stroke-linejoin:miter;stroke-miterlimit:4;stroke-dasharray:none;stroke-opacity:1"
         d="M 512.72445,1727.6206 C 286.39253,1726.1125 179.909,1511.2387 179.909,1182.4491 c 0,-328.9385 97.8919,-535.39573 290.95086,-538.6894 h 84.59879 c 193.08602,0 290.98835,209.67649 290.98835,538.6894 0,329.013 -106.70329,546.6842 -333.72255,545.1715 z"
         id="path77011"
         inkscape:connector-curvature="0"
         sodipodi:nodetypes="cccccc"
         class="ext" /></g><g
       transform="matrix(0.00832484,-0.0140856,0.0169027,0.00998984,61.115922,166.97834)"
       style="fill:none;stroke:#000000;stroke-width:167.364;stroke-dasharray:none;stroke-opacity:1"
       id="g77019"><path
         style="display:inline;fill:none;fill-rule:evenodd;stroke:#000000;stroke-width:167.364;stroke-linecap:butt;stroke-linejoin:miter;stroke-miterlimit:4;stroke-dasharray:none;stroke-opacity:1"
         d="M 514.29434,663.75007 C 332.77511,662.6941 212.55561,799.43258 212.55561,1182.4491 c 0,383.0166 112.75163,526.6991 301.73873,526.6991 186.73329,0 299.75002,-143.701 299.75002,-526.699 0,-384.05117 -110.63301,-518.69913 -299.75002,-518.69913 z"
         id="path77015"
         inkscape:connector-curvature="0"
         sodipodi:nodetypes="ccscc"
         class="int" /><path
         style="display:inline;fill:none;fill-rule:evenodd;stroke:#000000;stroke-width:167.364;stroke-linecap:butt;stroke-linejoin:miter;stroke-miterlimit:4;stroke-dasharray:none;stroke-opacity:1"
         d="M 512.72445,1727.6206 C 286.39253,1726.1125 179.909,1511.2387 179.909,1182.4491 c 0,-328.9385 97.8919,-535.39573 290.95086,-538.6894 h 84.59879 c 193.08602,0 290.98835,209.67649 290.98835,538.6894 0,329.013 -106.70329,546.6842 -333.72255,545.1715 z"
         id="path77017"
         inkscape:connector-curvature="0"
         sodipodi:nodetypes="cccccc"
         class="ext" /></g><g
       transform="matrix(0.0139797,-0.00850031,0.0102004,0.0167756,87.646022,134.26334)"
       style="fill:none;stroke:#000000;stroke-width:167.364;stroke-dasharray:none;stroke-opacity:1"
       id="g77025"><path
         style="display:inline;fill:none;fill-rule:evenodd;stroke:#000000;stroke-width:167.364;stroke-linecap:butt;stroke-linejoin:miter;stroke-miterlimit:4;stroke-dasharray:none;stroke-opacity:1"
         d="M 514.29434,663.75007 C 332.77511,662.6941 212.55561,799.43258 212.55561,1182.4491 c 0,383.0166 112.75163,526.6991 301.73873,526.6991 186.73329,0 299.75002,-143.701 299.75002,-526.699 0,-384.05117 -110.63301,-518.69913 -299.75002,-518.69913 z"
         id="path77021"
         inkscape:connector-curvature="0"
         sodipodi:nodetypes="ccscc"
         class="int" /><path
         style="display:inline;fill:none;fill-rule:evenodd;stroke:#000000;stroke-width:167.364;stroke-linecap:butt;stroke-linejoin:miter;stroke-miterlimit:4;stroke-dasharray:none;stroke-opacity:1"
         d="M 512.72445,1727.6206 C 286.39253,1726.1125 179.909,1511.2387 179.909,1182.4491 c 0,-328.9385 97.8919,-535.39573 290.95086,-538.6894 h 84.59879 c 193.08602,0 290.98835,209.67649 290.98835,538.6894 0,329.013 -106.70329,546.6842 -333.72255,545.1715 z"
         id="path77023"
         inkscape:connector-curvature="0"
         sodipodi:nodetypes="cccccc"
         class="ext" /></g><g
       transform="matrix(0.0162449,-0.00194931,0.00233918,0.0194939,124.76602,117.68534)"
       style="fill:none;stroke:#000000;stroke-width:167.364;stroke-dasharray:none;stroke-opacity:1"
       id="g77031"><path
         style="display:inline;fill:none;fill-rule:evenodd;stroke:#000000;stroke-width:167.364;stroke-linecap:butt;stroke-linejoin:miter;stroke-miterlimit:4;stroke-dasharray:none;stroke-opacity:1"
         d="M 514.29434,663.75007 C 332.77511,662.6941 212.55561,799.43258 212.55561,1182.4491 c 0,383.0166 112.75163,526.6991 301.73873,526.6991 186.73329,0 299.75002,-143.701 299.75002,-526.699 0,-384.05117 -110.63301,-518.69913 -299.75002,-518.69913 z"
         id="path77027"
         inkscape:connector-curvature="0"
         sodipodi:nodetypes="ccscc"
         class="int" /><path
         style="display:inline;fill:none;fill-rule:evenodd;stroke:#000000;stroke-width:167.364;stroke-linecap:butt;stroke-linejoin:miter;stroke-miterlimit:4;stroke-dasharray:none;stroke-opacity:1"
         d="M 512.72445,1727.6206 C 286.39253,1726.1125 179.909,1511.2387 179.909,1182.4491 c 0,-328.9385 97.8919,-535.39573 290.95086,-538.6894 h 84.59879 c 193.08602,0 290.98835,209.67649 290.98835,538.6894 0,329.013 -106.70329,546.6842 -333.72255,545.1715 z"
         id="path77029"
         inkscape:connector-curvature="0"
         sodipodi:nodetypes="cccccc"
         class="ext" /></g><g
       transform="matrix(0.0155604,0.00505776,-0.00606934,0.0186725,165.61202,118.15134)"
       style="fill:none;stroke:#000000;stroke-width:167.364;stroke-dasharray:none;stroke-opacity:1"
       id="g77037"><path
         style="display:inline;fill:none;fill-rule:evenodd;stroke:#000000;stroke-width:167.364;stroke-linecap:butt;stroke-linejoin:miter;stroke-miterlimit:4;stroke-dasharray:none;stroke-opacity:1"
         d="M 514.29434,663.75007 C 332.77511,662.6941 212.55561,799.43258 212.55561,1182.4491 c 0,383.0166 112.75163,526.6991 301.73873,526.6991 186.73329,0 299.75002,-143.701 299.75002,-526.699 0,-384.05117 -110.63301,-518.69913 -299.75002,-518.69913 z"
         id="path77033"
         inkscape:connector-curvature="0"
         sodipodi:nodetypes="ccscc"
         class="int" /><path
         style="display:inline;fill:none;fill-rule:evenodd;stroke:#000000;stroke-width:167.364;stroke-linecap:butt;stroke-linejoin:miter;stroke-miterlimit:4;stroke-dasharray:none;stroke-opacity:1"
         d="M 512.72445,1727.6206 C 286.39253,1726.1125 179.909,1511.2387 179.909,1182.4491 c 0,-328.9385 97.8919,-535.39573 290.95086,-538.6894 h 84.59879 c 193.08602,0 290.98835,209.67649 290.98835,538.6894 0,329.013 -106.70329,546.6842 -333.72255,545.1715 z"
         id="path77035"
         inkscape:connector-curvature="0"
         sodipodi:nodetypes="cccccc"
         class="ext" /></g><g
       transform="matrix(0.012646,0.0103819,-0.0124583,0.0151752,201.59202,134.34234)"
       style="fill:none;stroke:#000000;stroke-width:167.364;stroke-dasharray:none;stroke-opacity:1"
       id="g77043"><path
         style="display:inline;fill:none;fill-rule:evenodd;stroke:#000000;stroke-width:167.364;stroke-linecap:butt;stroke-linejoin:miter;stroke-miterlimit:4;stroke-dasharray:none;stroke-opacity:1"
         d="M 514.29434,663.75007 C 332.77511,662.6941 212.55561,799.43258 212.55561,1182.4491 c 0,383.0166 112.75163,526.6991 301.73873,526.6991 186.73329,0 299.75002,-143.701 299.75002,-526.699 0,-384.05117 -110.63301,-518.69913 -299.75002,-518.69913 z"
         id="path77039"
         inkscape:connector-curvature="0"
         sodipodi:nodetypes="ccscc"
         class="int" /><path
         style="display:inline;fill:none;fill-rule:evenodd;stroke:#000000;stroke-width:167.364;stroke-linecap:butt;stroke-linejoin:miter;stroke-miterlimit:4;stroke-dasharray:none;stroke-opacity:1"
         d="M 512.72445,1727.6206 C 286.39253,1726.1125 179.909,1511.2387 179.909,1182.4491 c 0,-328.9385 97.8919,-535.39573 290.95086,-538.6894 h 84.59879 c 193.08602,0 290.98835,209.67649 290.98835,538.6894 0,329.013 -106.70329,546.6842 -333.72255,545.1715 z"
         id="path77041"
         inkscape:connector-curvature="0"
         sodipodi:nodetypes="cccccc"
         class="ext" /></g><g
       transform="matrix(0.00732071,0.0146337,-0.0175605,0.00878488,229.39802,163.82634)"
       style="fill:none;stroke:#000000;stroke-width:167.364;stroke-dasharray:none;stroke-opacity:1"
       id="g77049"><path
         style="display:inline;fill:none;fill-rule:evenodd;stroke:#000000;stroke-width:167.364;stroke-linecap:butt;stroke-linejoin:miter;stroke-miterlimit:4;stroke-dasharray:none;stroke-opacity:1"
         d="M 514.29434,663.75007 C 332.77511,662.6941 212.55561,799.43258 212.55561,1182.4491 c 0,383.0166 112.75163,526.6991 301.73873,526.6991 186.73329,0 299.75002,-143.701 299.75002,-526.699 0,-384.05117 -110.63301,-518.69913 -299.75002,-518.69913 z"
         id="path77045"
         inkscape:connector-curvature="0"
         sodipodi:nodetypes="ccscc"
         class="int" /><path
         style="display:inline;fill:none;fill-rule:evenodd;stroke:#000000;stroke-width:167.364;stroke-linecap:butt;stroke-linejoin:miter;stroke-miterlimit:4;stroke-dasharray:none;stroke-opacity:1"
         d="M 512.72445,1727.6206 C 286.39253,1726.1125 179.909,1511.2387 179.909,1182.4491 c 0,-328.9385 97.8919,-535.39573 290.95086,-538.6894 h 84.59879 c 193.08602,0 290.98835,209.67649 290.98835,538.6894 0,329.013 -106.70329,546.6842 -333.72255,545.1715 z"
         id="path77047"
         inkscape:connector-curvature="0"
         sodipodi:nodetypes="cccccc"
         class="ext" /></g><g
       transform="matrix(0.0017858,0.0162637,-0.0195165,0.00214296,242.93002,200.41634)"
       style="fill:none;stroke:#000000;stroke-width:167.364;stroke-dasharray:none;stroke-opacity:1"
       id="g77055"><path
         style="display:inline;fill:none;fill-rule:evenodd;stroke:#000000;stroke-width:167.364;stroke-linecap:butt;stroke-linejoin:miter;stroke-miterlimit:4;stroke-dasharray:none;stroke-opacity:1"
         d="M 514.29434,663.75007 C 332.77511,662.6941 212.55561,799.43258 212.55561,1182.4491 c 0,383.0166 112.75163,526.6991 301.73873,526.6991 186.73329,0 299.75002,-143.701 299.75002,-526.699 0,-384.05117 -110.63301,-518.69913 -299.75002,-518.69913 z"
         id="path77051"
         inkscape:connector-curvature="0"
         sodipodi:nodetypes="ccscc"
         class="int" /><path
         style="display:inline;fill:none;fill-rule:evenodd;stroke:#000000;stroke-width:167.364;stroke-linecap:butt;stroke-linejoin:miter;stroke-miterlimit:4;stroke-dasharray:none;stroke-opacity:1"
         d="M 512.72445,1727.6206 C 286.39253,1726.1125 179.909,1511.2387 179.909,1182.4491 c 0,-328.9385 97.8919,-535.39573 290.95086,-538.6894 h 84.59879 c 193.08602,0 290.98835,209.67649 290.98835,538.6894 0,329.013 -106.70329,546.6842 -333.72255,545.1715 z"
         id="path77053"
         inkscape:connector-curvature="0"
         sodipodi:nodetypes="cccccc"
         class="ext" /></g><g
       transform="matrix(-0.00446153,0.0157417,-0.0188901,-0.00535385,242.41902,240.16634)"
       style="fill:none;stroke:#000000;stroke-width:167.364;stroke-dasharray:none;stroke-opacity:1"
       id="g77061"><path
         style="display:inline;fill:none;fill-rule:evenodd;stroke:#000000;stroke-width:167.364;stroke-linecap:butt;stroke-linejoin:miter;stroke-miterlimit:4;stroke-dasharray:none;stroke-opacity:1"
         d="M 514.29434,663.75007 C 332.77511,662.6941 212.55561,799.43258 212.55561,1182.4491 c 0,383.0166 112.75163,526.6991 301.73873,526.6991 186.73329,0 299.75002,-143.701 299.75002,-526.699 0,-384.05117 -110.63301,-518.69913 -299.75002,-518.69913 z"
         id="path77057"
         inkscape:connector-curvature="0"
         sodipodi:nodetypes="ccscc"
         class="int" /><path
         style="display:inline;fill:none;fill-rule:evenodd;stroke:#000000;stroke-width:167.364;stroke-linecap:butt;stroke-linejoin:miter;stroke-miterlimit:4;stroke-dasharray:none;stroke-opacity:1"
         d="M 512.72445,1727.6206 C 286.39253,1726.1125 179.909,1511.2387 179.909,1182.4491 c 0,-328.9385 97.8919,-535.39573 290.95086,-538.6894 h 84.59879 c 193.08602,0 290.98835,209.67649 290.98835,538.6894 0,329.013 -106.70329,546.6842 -333.72255,545.1715 z"
         id="path77059"
         inkscape:connector-curvature="0"
         sodipodi:nodetypes="cccccc"
         class="ext" /></g><g
       transform="matrix(-0.00926944,0.0134827,-0.0161792,-0.0111234,228.43502,275.91934)"
       style="fill:none;stroke:#000000;stroke-width:167.364;stroke-dasharray:none;stroke-opacity:1"
       id="g77067"><path
         style="display:inline;fill:none;fill-rule:evenodd;stroke:#000000;stroke-width:167.364;stroke-linecap:butt;stroke-linejoin:miter;stroke-miterlimit:4;stroke-dasharray:none;stroke-opacity:1"
         d="M 514.29434,663.75007 C 332.77511,662.6941 212.55561,799.43258 212.55561,1182.4491 c 0,383.0166 112.75163,526.6991 301.73873,526.6991 186.73329,0 299.75002,-143.701 299.75002,-526.699 0,-384.05117 -110.63301,-518.69913 -299.75002,-518.69913 z"
         id="path77063"
         inkscape:connector-curvature="0"
         sodipodi:nodetypes="ccscc"
         class="int" /><path
         style="display:inline;fill:none;fill-rule:evenodd;stroke:#000000;stroke-width:167.364;stroke-linecap:butt;stroke-linejoin:miter;stroke-miterlimit:4;stroke-dasharray:none;stroke-opacity:1"
         d="M 512.72445,1727.6206 C 286.39253,1726.1125 179.909,1511.2387 179.909,1182.4491 c 0,-328.9385 97.8919,-535.39573 290.95086,-538.6894 h 84.59879 c 193.08602,0 290.98835,209.67649 290.98835,538.6894 0,329.013 -106.70329,546.6842 -333.72255,545.1715 z"
         id="path77065"
         inkscape:connector-curvature="0"
         sodipodi:nodetypes="cccccc"
         class="ext" /></g><g
       transform="matrix(-0.013602,0.00909526,-0.0109143,-0.0163224,202.51202,305.90834)"
       style="fill:none;stroke:#000000;stroke-width:167.364;stroke-dasharray:none;stroke-opacity:1"
       id="g77073"><path
         style="display:inline;fill:none;fill-rule:evenodd;stroke:#000000;stroke-width:167.364;stroke-linecap:butt;stroke-linejoin:miter;stroke-miterlimit:4;stroke-dasharray:none;stroke-opacity:1"
         d="M 514.29434,663.75007 C 332.77511,662.6941 212.55561,799.43258 212.55561,1182.4491 c 0,383.0166 112.75163,526.6991 301.73873,526.6991 186.73329,0 299.75002,-143.701 299.75002,-526.699 0,-384.05117 -110.63301,-518.69913 -299.75002,-518.69913 z"
         id="path77069"
         inkscape:connector-curvature="0"
         sodipodi:nodetypes="ccscc"
         class="int" /><path
         style="display:inline;fill:none;fill-rule:evenodd;stroke:#000000;stroke-width:167.364;stroke-linecap:butt;stroke-linejoin:miter;stroke-miterlimit:4;stroke-dasharray:none;stroke-opacity:1"
         d="M 512.72445,1727.6206 C 286.39253,1726.1125 179.909,1511.2387 179.909,1182.4491 c 0,-328.9385 97.8919,-535.39573 290.95086,-538.6894 h 84.59879 c 193.08602,0 290.98835,209.67649 290.98835,538.6894 0,329.013 -106.70329,546.6842 -333.72255,545.1715 z"
         id="path77071"
         inkscape:connector-curvature="0"
         sodipodi:nodetypes="cccccc"
         class="ext" /></g><g
       transform="matrix(-0.0157795,0.00432986,-0.00519584,-0.0189354,168.88802,324.26034)"
       style="fill:none;stroke:#000000;stroke-width:167.364;stroke-dasharray:none;stroke-opacity:1"
       id="g77079"><path
         style="display:inline;fill:none;fill-rule:evenodd;stroke:#000000;stroke-width:167.364;stroke-linecap:butt;stroke-linejoin:miter;stroke-miterlimit:4;stroke-dasharray:none;stroke-opacity:1"
         d="M 514.29434,663.75007 C 332.77511,662.6941 212.55561,799.43258 212.55561,1182.4491 c 0,383.0166 112.75163,526.6991 301.73873,526.6991 186.73329,0 299.75002,-143.701 299.75002,-526.699 0,-384.05117 -110.63301,-518.69913 -299.75002,-518.69913 z"
         id="path77075"
         inkscape:connector-curvature="0"
         sodipodi:nodetypes="ccscc"
         class="int" /><path
         style="display:inline;fill:none;fill-rule:evenodd;stroke:#000000;stroke-width:167.364;stroke-linecap:butt;stroke-linejoin:miter;stroke-miterlimit:4;stroke-dasharray:none;stroke-opacity:1"
         d="M 512.72445,1727.6206 C 286.39253,1726.1125 179.909,1511.2387 179.909,1182.4491 c 0,-328.9385 97.8919,-535.39573 290.95086,-538.6894 h 84.59879 c 193.08602,0 290.98835,209.67649 290.98835,538.6894 0,329.013 -106.70329,546.6842 -333.72255,545.1715 z"
         id="path77077"
         inkscape:connector-curvature="0"
         sodipodi:nodetypes="cccccc"
         class="ext" /></g><g
       transform="matrix(-0.0163444,-7.50325e-4,9.00393e-4,-0.0196133,131.31602,330.53634)"
       style="fill:none;stroke:#000000;stroke-width:167.364;stroke-dasharray:none;stroke-opacity:1"
       id="g77085"><path
         style="display:inline;fill:none;fill-rule:evenodd;stroke:#000000;stroke-width:167.364;stroke-linecap:butt;stroke-linejoin:miter;stroke-miterlimit:4;stroke-dasharray:none;stroke-opacity:1"
         d="M 514.29434,663.75007 C 332.77511,662.6941 212.55561,799.43258 212.55561,1182.4491 c 0,383.0166 112.75163,526.6991 301.73873,526.6991 186.73329,0 299.75002,-143.701 299.75002,-526.699 0,-384.05117 -110.63301,-518.69913 -299.75002,-518.69913 z"
         id="path77081"
         inkscape:connector-curvature="0"
         sodipodi:nodetypes="ccscc"
         class="int" /><path
         style="display:inline;fill:none;fill-rule:evenodd;stroke:#000000;stroke-width:167.364;stroke-linecap:butt;stroke-linejoin:miter;stroke-miterlimit:4;stroke-dasharray:none;stroke-opacity:1"
         d="M 512.72445,1727.6206 C 286.39253,1726.1125 179.909,1511.2387 179.909,1182.4491 c 0,-328.9385 97.8919,-535.39573 290.95086,-538.6894 h 84.59879 c 193.08602,0 290.98835,209.67649 290.98835,538.6894 0,329.013 -106.70329,546.6842 -333.72255,545.1715 z"
         id="path77083"
         inkscape:connector-curvature="0"
         sodipodi:nodetypes="cccccc"
         class="ext" /></g><g
       transform="matrix(-0.0152204,-0.00600381,0.00720459,-0.0182645,93.262622,324.75734)"
       style="fill:none;stroke:#000000;stroke-width:167.364;stroke-dasharray:none;stroke-opacity:1"
       id="g77091"><path
         style="display:inline;fill:none;fill-rule:evenodd;stroke:#000000;stroke-width:167.364;stroke-linecap:butt;stroke-linejoin:miter;stroke-miterlimit:4;stroke-dasharray:none;stroke-opacity:1"
         d="M 514.29434,663.75007 C 332.77511,662.6941 212.55561,799.43258 212.55561,1182.4491 c 0,383.0166 112.75163,526.6991 301.73873,526.6991 186.73329,0 299.75002,-143.701 299.75002,-526.699 0,-384.05117 -110.63301,-518.69913 -299.75002,-518.69913 z"
         id="path77087"
         inkscape:connector-curvature="0"
         sodipodi:nodetypes="ccscc"
         class="int" /><path
         style="display:inline;fill:none;fill-rule:evenodd;stroke:#000000;stroke-width:167.364;stroke-linecap:butt;stroke-linejoin:miter;stroke-miterlimit:4;stroke-dasharray:none;stroke-opacity:1"
         d="M 512.72445,1727.6206 C 286.39253,1726.1125 179.909,1511.2387 179.909,1182.4491 c 0,-328.9385 97.8919,-535.39573 290.95086,-538.6894 h 84.59879 c 193.08602,0 290.98835,209.67649 290.98835,538.6894 0,329.013 -106.70329,546.6842 -333.72255,545.1715 z"
         id="path77089"
         inkscape:connector-curvature="0"
         sodipodi:nodetypes="cccccc"
         class="ext" /></g><g
       transform="matrix(-0.0124612,-0.0106028,0.0127234,-0.0149535,58.741322,307.63634)"
       style="fill:none;stroke:#000000;stroke-width:167.364;stroke-dasharray:none;stroke-opacity:1"
       id="g77097"><path
         style="display:inline;fill:none;fill-rule:evenodd;stroke:#000000;stroke-width:167.364;stroke-linecap:butt;stroke-linejoin:miter;stroke-miterlimit:4;stroke-dasharray:none;stroke-opacity:1"
         d="M 514.29434,663.75007 C 332.77511,662.6941 212.55561,799.43258 212.55561,1182.4491 c 0,383.0166 112.75163,526.6991 301.73873,526.6991 186.73329,0 299.75002,-143.701 299.75002,-526.699 0,-384.05117 -110.63301,-518.69913 -299.75002,-518.69913 z"
         id="path77093"
         inkscape:connector-curvature="0"
         sodipodi:nodetypes="ccscc"
         class="int" /><path
         style="display:inline;fill:none;fill-rule:evenodd;stroke:#000000;stroke-width:167.364;stroke-linecap:butt;stroke-linejoin:miter;stroke-miterlimit:4;stroke-dasharray:none;stroke-opacity:1"
         d="M 512.72445,1727.6206 C 286.39253,1726.1125 179.909,1511.2387 179.909,1182.4491 c 0,-328.9385 97.8919,-535.39573 290.95086,-538.6894 h 84.59879 c 193.08602,0 290.98835,209.67649 290.98835,538.6894 0,329.013 -106.70329,546.6842 -333.72255,545.1715 z"
         id="path77095"
         inkscape:connector-curvature="0"
         sodipodi:nodetypes="cccccc"
         class="ext" /></g><g
       transform="matrix(-0.00897628,-0.0136808,0.016417,-0.0107716,32.038922,281.33134)"
       style="fill:none;stroke:#000000;stroke-width:167.364;stroke-dasharray:none;stroke-opacity:1"
       id="g77103"><path
         style="display:inline;fill:none;fill-rule:evenodd;stroke:#000000;stroke-width:167.364;stroke-linecap:butt;stroke-linejoin:miter;stroke-miterlimit:4;stroke-dasharray:none;stroke-opacity:1"
         d="M 514.29434,663.75007 C 332.77511,662.6941 212.55561,799.43258 212.55561,1182.4491 c 0,383.0166 112.75163,526.6991 301.73873,526.6991 186.73329,0 299.75002,-143.701 299.75002,-526.699 0,-384.05117 -110.63301,-518.69913 -299.75002,-518.69913 z"
         id="path77099"
         inkscape:connector-curvature="0"
         sodipodi:nodetypes="ccscc"
         class="int" /><path
         style="display:inline;fill:none;fill-rule:evenodd;stroke:#000000;stroke-width:167.364;stroke-linecap:butt;stroke-linejoin:miter;stroke-miterlimit:4;stroke-dasharray:none;stroke-opacity:1"
         d="M 512.72445,1727.6206 C 286.39253,1726.1125 179.909,1511.2387 179.909,1182.4491 c 0,-328.9385 97.8919,-535.39573 290.95086,-538.6894 h 84.59879 c 193.08602,0 290.98835,209.67649 290.98835,538.6894 0,329.013 -106.70329,546.6842 -333.72255,545.1715 z"
         id="path77101"
         inkscape:connector-curvature="0"
         sodipodi:nodetypes="cccccc"
         class="ext" /></g><g
       transform="matrix(-0.00422117,-0.0158089,0.0189707,-0.00506542,13.963622,247.57134)"
       style="fill:none;stroke:#000000;stroke-width:167.364;stroke-dasharray:none;stroke-opacity:1"
       id="g77109"><path
         style="display:inline;fill:none;fill-rule:evenodd;stroke:#000000;stroke-width:167.364;stroke-linecap:butt;stroke-linejoin:miter;stroke-miterlimit:4;stroke-dasharray:none;stroke-opacity:1"
         d="M 514.29434,663.75007 C 332.77511,662.6941 212.55561,799.43258 212.55561,1182.4491 c 0,383.0166 112.75163,526.6991 301.73873,526.6991 186.73329,0 299.75002,-143.701 299.75002,-526.699 0,-384.05117 -110.63301,-518.69913 -299.75002,-518.69913 z"
         id="path77105"
         inkscape:connector-curvature="0"
         sodipodi:nodetypes="ccscc"
         class="int" /><path
         style="display:inline;fill:none;fill-rule:evenodd;stroke:#000000;stroke-width:167.364;stroke-linecap:butt;stroke-linejoin:miter;stroke-miterlimit:4;stroke-dasharray:none;stroke-opacity:1"
         d="M 512.72445,1727.6206 C 286.39253,1726.1125 179.909,1511.2387 179.909,1182.4491 c 0,-328.9385 97.8919,-535.39573 290.95086,-538.6894 h 84.59879 c 193.08602,0 290.98835,209.67649 290.98835,538.6894 0,329.013 -106.70329,546.6842 -333.72255,545.1715 z"
         id="path77107"
         inkscape:connector-curvature="0"
         sodipodi:nodetypes="cccccc"
         class="ext" /></g><g
       transform="matrix(2.46425e-4,-0.0163609,0.0196332,2.95711e-4,7.1535224,210.93034)"
       style="fill:none;stroke:#000000;stroke-width:167.364;stroke-dasharray:none;stroke-opacity:1"
       id="g77115"><path
         style="display:inline;fill:none;fill-rule:evenodd;stroke:#000000;stroke-width:167.364;stroke-linecap:butt;stroke-linejoin:miter;stroke-miterlimit:4;stroke-dasharray:none;stroke-opacity:1"
         d="M 514.29434,663.75007 C 332.77511,662.6941 212.55561,799.43258 212.55561,1182.4491 c 0,383.0166 112.75163,526.6991 301.73873,526.6991 186.73329,0 299.75002,-143.701 299.75002,-526.699 0,-384.05117 -110.63301,-518.69913 -299.75002,-518.69913 z"
         id="path77111"
         inkscape:connector-curvature="0"
         sodipodi:nodetypes="ccscc"
         class="int" /><path
         style="display:inline;fill:none;fill-rule:evenodd;stroke:#000000;stroke-width:167.364;stroke-linecap:butt;stroke-linejoin:miter;stroke-miterlimit:4;stroke-dasharray:none;stroke-opacity:1"
         d="M 512.72445,1727.6206 C 286.39253,1726.1125 179.909,1511.2387 179.909,1182.4491 c 0,-328.9385 97.8919,-535.39573 290.95086,-538.6894 h 84.59879 c 193.08602,0 290.98835,209.67649 290.98835,538.6894 0,329.013 -106.70329,546.6842 -333.72255,545.1715 z"
         id="path77113"
         inkscape:connector-curvature="0"
         sodipodi:nodetypes="cccccc"
         class="ext" /></g><g
       transform="matrix(0.0046442,-0.0156888,0.0188266,0.00557305,10.916322,173.94334)"
       style="fill:none;stroke:#000000;stroke-width:167.364;stroke-dasharray:none;stroke-opacity:1"
       id="g77121"><path
         style="display:inline;fill:none;fill-rule:evenodd;stroke:#000000;stroke-width:167.364;stroke-linecap:butt;stroke-linejoin:miter;stroke-miterlimit:4;stroke-dasharray:none;stroke-opacity:1"
         d="M 514.29434,663.75007 C 332.77511,662.6941 212.55561,799.43258 212.55561,1182.4491 c 0,383.0166 112.75163,526.6991 301.73873,526.6991 186.73329,0 299.75002,-143.701 299.75002,-526.699 0,-384.05117 -110.63301,-518.69913 -299.75002,-518.69913 z"
         id="path77117"
         inkscape:connector-curvature="0"
         sodipodi:nodetypes="ccscc"
         class="int" /><path
         style="display:inline;fill:none;fill-rule:evenodd;stroke:#000000;stroke-width:167.364;stroke-linecap:butt;stroke-linejoin:miter;stroke-miterlimit:4;stroke-dasharray:none;stroke-opacity:1"
         d="M 512.72445,1727.6206 C 286.39253,1726.1125 179.909,1511.2387 179.909,1182.4491 c 0,-328.9385 97.8919,-535.39573 290.95086,-538.6894 h 84.59879 c 193.08602,0 290.98835,209.67649 290.98835,538.6894 0,329.013 -106.70329,546.6842 -333.72255,545.1715 z"
         id="path77119"
         inkscape:connector-curvature="0"
         sodipodi:nodetypes="cccccc"
         class="ext" /></g><g
       transform="matrix(0.00880184,-0.0137925,0.016551,0.0105622,24.603222,139.18434)"
       style="fill:none;stroke:#000000;stroke-width:167.364;stroke-dasharray:none;stroke-opacity:1"
       id="g77127"><path
         style="display:inline;fill:none;fill-rule:evenodd;stroke:#000000;stroke-width:167.364;stroke-linecap:butt;stroke-linejoin:miter;stroke-miterlimit:4;stroke-dasharray:none;stroke-opacity:1"
         d="M 514.29434,663.75007 C 332.77511,662.6941 212.55561,799.43258 212.55561,1182.4491 c 0,383.0166 112.75163,526.6991 301.73873,526.6991 186.73329,0 299.75002,-143.701 299.75002,-526.699 0,-384.05117 -110.63301,-518.69913 -299.75002,-518.69913 z"
         id="path77123"
         inkscape:connector-curvature="0"
         sodipodi:nodetypes="ccscc"
         class="int" /><path
         style="display:inline;fill:none;fill-rule:evenodd;stroke:#000000;stroke-width:167.364;stroke-linecap:butt;stroke-linejoin:miter;stroke-miterlimit:4;stroke-dasharray:none;stroke-opacity:1"
         d="M 512.72445,1727.6206 C 286.39253,1726.1125 179.909,1511.2387 179.909,1182.4491 c 0,-328.9385 97.8919,-535.39573 290.95086,-538.6894 h 84.59879 c 193.08602,0 290.98835,209.67649 290.98835,538.6894 0,329.013 -106.70329,546.6842 -333.72255,545.1715 z"
         id="path77125"
         inkscape:connector-curvature="0"
         sodipodi:nodetypes="cccccc"
         class="ext" /></g><g
       transform="matrix(0.0122455,-0.010853,0.0130237,0.0146947,47.203922,109.50934)"
       style="fill:none;stroke:#000000;stroke-width:167.364;stroke-dasharray:none;stroke-opacity:1"
       id="g77133"><path
         style="display:inline;fill:none;fill-rule:evenodd;stroke:#000000;stroke-width:167.364;stroke-linecap:butt;stroke-linejoin:miter;stroke-miterlimit:4;stroke-dasharray:none;stroke-opacity:1"
         d="M 514.29434,663.75007 C 332.77511,662.6941 212.55561,799.43258 212.55561,1182.4491 c 0,383.0166 112.75163,526.6991 301.73873,526.6991 186.73329,0 299.75002,-143.701 299.75002,-526.699 0,-384.05117 -110.63301,-518.69913 -299.75002,-518.69913 z"
         id="path77129"
         inkscape:connector-curvature="0"
         sodipodi:nodetypes="ccscc"
         class="int" /><path
         style="display:inline;fill:none;fill-rule:evenodd;stroke:#000000;stroke-width:167.364;stroke-linecap:butt;stroke-linejoin:miter;stroke-miterlimit:4;stroke-dasharray:none;stroke-opacity:1"
         d="M 512.72445,1727.6206 C 286.39253,1726.1125 179.909,1511.2387 179.909,1182.4491 c 0,-328.9385 97.8919,-535.39573 290.95086,-538.6894 h 84.59879 c 193.08602,0 290.98835,209.67649 290.98835,538.6894 0,329.013 -106.70329,546.6842 -333.72255,545.1715 z"
         id="path77131"
         inkscape:connector-curvature="0"
         sodipodi:nodetypes="cccccc"
         class="ext" /></g><g
       transform="matrix(0.014809,-0.00695923,0.0083511,0.0177709,77.285922,87.11884)"
       style="fill:none;stroke:#000000;stroke-width:167.364;stroke-dasharray:none;stroke-opacity:1"
       id="g77139"><path
         style="display:inline;fill:none;fill-rule:evenodd;stroke:#000000;stroke-width:167.364;stroke-linecap:butt;stroke-linejoin:miter;stroke-miterlimit:4;stroke-dasharray:none;stroke-opacity:1"
         d="M 514.29434,663.75007 C 332.77511,662.6941 212.55561,799.43258 212.55561,1182.4491 c 0,383.0166 112.75163,526.6991 301.73873,526.6991 186.73329,0 299.75002,-143.701 299.75002,-526.699 0,-384.05117 -110.63301,-518.69913 -299.75002,-518.69913 z"
         id="path77135"
         inkscape:connector-curvature="0"
         sodipodi:nodetypes="ccscc"
         class="int" /><path
         style="display:inline;fill:none;fill-rule:evenodd;stroke:#000000;stroke-width:167.364;stroke-linecap:butt;stroke-linejoin:miter;stroke-miterlimit:4;stroke-dasharray:none;stroke-opacity:1"
         d="M 512.72445,1727.6206 C 286.39253,1726.1125 179.909,1511.2387 179.909,1182.4491 c 0,-328.9385 97.8919,-535.39573 290.95086,-538.6894 h 84.59879 c 193.08602,0 290.98835,209.67649 290.98835,538.6894 0,329.013 -106.70329,546.6842 -333.72255,545.1715 z"
         id="path77137"
         inkscape:connector-curvature="0"
         sodipodi:nodetypes="cccccc"
         class="ext" /></g><g
       transform="matrix(0.0161707,-0.00249958,0.00299951,0.0194049,112.36102,73.77134)"
       style="fill:none;stroke:#000000;stroke-width:167.364;stroke-dasharray:none;stroke-opacity:1"
       id="g77145"><path
         style="display:inline;fill:none;fill-rule:evenodd;stroke:#000000;stroke-width:167.364;stroke-linecap:butt;stroke-linejoin:miter;stroke-miterlimit:4;stroke-dasharray:none;stroke-opacity:1"
         d="M 514.29434,663.75007 C 332.77511,662.6941 212.55561,799.43258 212.55561,1182.4491 c 0,383.0166 112.75163,526.6991 301.73873,526.6991 186.73329,0 299.75002,-143.701 299.75002,-526.699 0,-384.05117 -110.63301,-518.69913 -299.75002,-518.69913 z"
         id="path77141"
         inkscape:connector-curvature="0"
         sodipodi:nodetypes="ccscc"
         class="int" /><path
         style="display:inline;fill:none;fill-rule:evenodd;stroke:#000000;stroke-width:167.364;stroke-linecap:butt;stroke-linejoin:miter;stroke-miterlimit:4;stroke-dasharray:none;stroke-opacity:1"
         d="M 512.72445,1727.6206 C 286.39253,1726.1125 179.909,1511.2387 179.909,1182.4491 c 0,-328.9385 97.8919,-535.39573 290.95086,-538.6894 h 84.59879 c 193.08602,0 290.98835,209.67649 290.98835,538.6894 0,329.013 -106.70329,546.6842 -333.72255,545.1715 z"
         id="path77143"
         inkscape:connector-curvature="0"
         sodipodi:nodetypes="cccccc"
         class="ext" /></g><g
       transform="matrix(0.016294,0.00149909,-0.00179892,0.0195529,148.78802,70.53144)"
       style="fill:none;stroke:#000000;stroke-width:167.364;stroke-dasharray:none;stroke-opacity:1"
       id="g77151"><path
         style="display:inline;fill:none;fill-rule:evenodd;stroke:#000000;stroke-width:167.364;stroke-linecap:butt;stroke-linejoin:miter;stroke-miterlimit:4;stroke-dasharray:none;stroke-opacity:1"
         d="M 514.29434,663.75007 C 332.77511,662.6941 212.55561,799.43258 212.55561,1182.4491 c 0,383.0166 112.75163,526.6991 301.73873,526.6991 186.73329,0 299.75002,-143.701 299.75002,-526.699 0,-384.05117 -110.63301,-518.69913 -299.75002,-518.69913 z"
         id="path77147"
         inkscape:connector-curvature="0"
         sodipodi:nodetypes="ccscc"
         class="int" /><path
         style="display:inline;fill:none;fill-rule:evenodd;stroke:#000000;stroke-width:167.364;stroke-linecap:butt;stroke-linejoin:miter;stroke-miterlimit:4;stroke-dasharray:none;stroke-opacity:1"
         d="M 512.72445,1727.6206 C 286.39253,1726.1125 179.909,1511.2387 179.909,1182.4491 c 0,-328.9385 97.8919,-535.39573 290.95086,-538.6894 h 84.59879 c 193.08602,0 290.98835,209.67649 290.98835,538.6894 0,329.013 -106.70329,546.6842 -333.72255,545.1715 z"
         id="path77149"
         inkscape:connector-curvature="0"
         sodipodi:nodetypes="cccccc"
         class="ext" /></g><g
       transform="matrix(0.0153695,0.00561445,-0.00673736,0.0184434,185.18502,76.52694)"
       style="fill:none;stroke:#000000;stroke-width:167.364;stroke-dasharray:none;stroke-opacity:1"
       id="g77157"><path
         style="display:inline;fill:none;fill-rule:evenodd;stroke:#000000;stroke-width:167.364;stroke-linecap:butt;stroke-linejoin:miter;stroke-miterlimit:4;stroke-dasharray:none;stroke-opacity:1"
         d="M 514.29434,663.75007 C 332.77511,662.6941 212.55561,799.43258 212.55561,1182.4491 c 0,383.0166 112.75163,526.6991 301.73873,526.6991 186.73329,0 299.75002,-143.701 299.75002,-526.699 0,-384.05117 -110.63301,-518.69913 -299.75002,-518.69913 z"
         id="path77153"
         inkscape:connector-curvature="0"
         sodipodi:nodetypes="ccscc"
         class="int" /><path
         style="display:inline;fill:none;fill-rule:evenodd;stroke:#000000;stroke-width:167.364;stroke-linecap:butt;stroke-linejoin:miter;stroke-miterlimit:4;stroke-dasharray:none;stroke-opacity:1"
         d="M 512.72445,1727.6206 C 286.39253,1726.1125 179.909,1511.2387 179.909,1182.4491 c 0,-328.9385 97.8919,-535.39573 290.95086,-538.6894 h 84.59879 c 193.08602,0 290.98835,209.67649 290.98835,538.6894 0,329.013 -106.70329,546.6842 -333.72255,545.1715 z"
         id="path77155"
         inkscape:connector-curvature="0"
         sodipodi:nodetypes="cccccc"
         class="ext" /></g><g
       transform="matrix(0.013647,0.00902774,-0.0108333,0.0163765,218.40402,91.19824)"
       style="fill:none;stroke:#000000;stroke-width:167.364;stroke-dasharray:none;stroke-opacity:1"
       id="g77163"><path
         style="display:inline;fill:none;fill-rule:evenodd;stroke:#000000;stroke-width:167.364;stroke-linecap:butt;stroke-linejoin:miter;stroke-miterlimit:4;stroke-dasharray:none;stroke-opacity:1"
         d="M 514.29434,663.75007 C 332.77511,662.6941 212.55561,799.43258 212.55561,1182.4491 c 0,383.0166 112.75163,526.6991 301.73873,526.6991 186.73329,0 299.75002,-143.701 299.75002,-526.699 0,-384.05117 -110.63301,-518.69913 -299.75002,-518.69913 z"
         id="path77159"
         inkscape:connector-curvature="0"
         sodipodi:nodetypes="ccscc"
         class="int" /><path
         style="display:inline;fill:none;fill-rule:evenodd;stroke:#000000;stroke-width:167.364;stroke-linecap:butt;stroke-linejoin:miter;stroke-miterlimit:4;stroke-dasharray:none;stroke-opacity:1"
         d="M 512.72445,1727.6206 C 286.39253,1726.1125 179.909,1511.2387 179.909,1182.4491 c 0,-328.9385 97.8919,-535.39573 290.95086,-538.6894 h 84.59879 c 193.08602,0 290.98835,209.67649 290.98835,538.6894 0,329.013 -106.70329,546.6842 -333.72255,545.1715 z"
         id="path77161"
         inkscape:connector-curvature="0"
         sodipodi:nodetypes="cccccc"
         class="ext" /></g><g
       transform="matrix(0.0107866,0.0123041,-0.014765,0.0129439,247.68202,113.93834)"
       style="fill:none;stroke:#000000;stroke-width:167.364;stroke-dasharray:none;stroke-opacity:1"
       id="g77169"><path
         style="display:inline;fill:none;fill-rule:evenodd;stroke:#000000;stroke-width:167.364;stroke-linecap:butt;stroke-linejoin:miter;stroke-miterlimit:4;stroke-dasharray:none;stroke-opacity:1"
         d="M 514.29434,663.75007 C 332.77511,662.6941 212.55561,799.43258 212.55561,1182.4491 c 0,383.0166 112.75163,526.6991 301.73873,526.6991 186.73329,0 299.75002,-143.701 299.75002,-526.699 0,-384.05117 -110.63301,-518.69913 -299.75002,-518.69913 z"
         id="path77165"
         inkscape:connector-curvature="0"
         sodipodi:nodetypes="ccscc"
         class="int" /><path
         style="display:inline;fill:none;fill-rule:evenodd;stroke:#000000;stroke-width:167.364;stroke-linecap:butt;stroke-linejoin:miter;stroke-miterlimit:4;stroke-dasharray:none;stroke-opacity:1"
         d="M 512.72445,1727.6206 C 286.39253,1726.1125 179.909,1511.2387 179.909,1182.4491 c 0,-328.9385 97.8919,-535.39573 290.95086,-538.6894 h 84.59879 c 193.08602,0 290.98835,209.67649 290.98835,538.6894 0,329.013 -106.70329,546.6842 -333.72255,545.1715 z"
         id="path77167"
         inkscape:connector-curvature="0"
         sodipodi:nodetypes="cccccc"
         class="ext" /></g><g
       transform="matrix(0.00727438,0.0146568,-0.0175882,0.00872928,270.10502,143.25534)"
       style="fill:none;stroke:#000000;stroke-width:167.364;stroke-dasharray:none;stroke-opacity:1"
       id="g77175"><path
         style="display:inline;fill:none;fill-rule:evenodd;stroke:#000000;stroke-width:167.364;stroke-linecap:butt;stroke-linejoin:miter;stroke-miterlimit:4;stroke-dasharray:none;stroke-opacity:1"
         d="M 514.29434,663.75007 C 332.77511,662.6941 212.55561,799.43258 212.55561,1182.4491 c 0,383.0166 112.75163,526.6991 301.73873,526.6991 186.73329,0 299.75002,-143.701 299.75002,-526.699 0,-384.05117 -110.63301,-518.69913 -299.75002,-518.69913 z"
         id="path77171"
         inkscape:connector-curvature="0"
         sodipodi:nodetypes="ccscc"
         class="int" /><path
         style="display:inline;fill:none;fill-rule:evenodd;stroke:#000000;stroke-width:167.364;stroke-linecap:butt;stroke-linejoin:miter;stroke-miterlimit:4;stroke-dasharray:none;stroke-opacity:1"
         d="M 512.72445,1727.6206 C 286.39253,1726.1125 179.909,1511.2387 179.909,1182.4491 c 0,-328.9385 97.8919,-535.39573 290.95086,-538.6894 h 84.59879 c 193.08602,0 290.98835,209.67649 290.98835,538.6894 0,329.013 -106.70329,546.6842 -333.72255,545.1715 z"
         id="path77173"
         inkscape:connector-curvature="0"
         sodipodi:nodetypes="cccccc"
         class="ext" /></g><g
       transform="matrix(0.0036539,0.0159496,-0.0191395,0.0043847,284.21002,176.75834)"
       style="fill:none;stroke:#000000;stroke-width:167.364;stroke-dasharray:none;stroke-opacity:1"
       id="g77181"><path
         style="display:inline;fill:none;fill-rule:evenodd;stroke:#000000;stroke-width:167.364;stroke-linecap:butt;stroke-linejoin:miter;stroke-miterlimit:4;stroke-dasharray:none;stroke-opacity:1"
         d="M 514.29434,663.75007 C 332.77511,662.6941 212.55561,799.43258 212.55561,1182.4491 c 0,383.0166 112.75163,526.6991 301.73873,526.6991 186.73329,0 299.75002,-143.701 299.75002,-526.699 0,-384.05117 -110.63301,-518.69913 -299.75002,-518.69913 z"
         id="path77177"
         inkscape:connector-curvature="0"
         sodipodi:nodetypes="ccscc"
         class="int" /><path
         style="display:inline;fill:none;fill-rule:evenodd;stroke:#000000;stroke-width:167.364;stroke-linecap:butt;stroke-linejoin:miter;stroke-miterlimit:4;stroke-dasharray:none;stroke-opacity:1"
         d="M 512.72445,1727.6206 C 286.39253,1726.1125 179.909,1511.2387 179.909,1182.4491 c 0,-328.9385 97.8919,-535.39573 290.95086,-538.6894 h 84.59879 c 193.08602,0 290.98835,209.67649 290.98835,538.6894 0,329.013 -106.70329,546.6842 -333.72255,545.1715 z"
         id="path77179"
         inkscape:connector-curvature="0"
         sodipodi:nodetypes="cccccc"
         class="ext" /></g><g
       transform="matrix(-3.8113e-4,0.0163584,-0.0196301,-4.57358e-4,289.90802,212.96934)"
       style="fill:none;stroke:#000000;stroke-width:167.364;stroke-dasharray:none;stroke-opacity:1"
       id="g77187"><path
         style="display:inline;fill:none;fill-rule:evenodd;stroke:#000000;stroke-width:167.364;stroke-linecap:butt;stroke-linejoin:miter;stroke-miterlimit:4;stroke-dasharray:none;stroke-opacity:1"
         d="M 514.29434,663.75007 C 332.77511,662.6941 212.55561,799.43258 212.55561,1182.4491 c 0,383.0166 112.75163,526.6991 301.73873,526.6991 186.73329,0 299.75002,-143.701 299.75002,-526.699 0,-384.05117 -110.63301,-518.69913 -299.75002,-518.69913 z"
         id="path77183"
         inkscape:connector-curvature="0"
         sodipodi:nodetypes="ccscc"
         class="int" /><path
         style="display:inline;fill:none;fill-rule:evenodd;stroke:#000000;stroke-width:167.364;stroke-linecap:butt;stroke-linejoin:miter;stroke-miterlimit:4;stroke-dasharray:none;stroke-opacity:1"
         d="M 512.72445,1727.6206 C 286.39253,1726.1125 179.909,1511.2387 179.909,1182.4491 c 0,-328.9385 97.8919,-535.39573 290.95086,-538.6894 h 84.59879 c 193.08602,0 290.98835,209.67649 290.98835,538.6894 0,329.013 -106.70329,546.6842 -333.72255,545.1715 z"
         id="path77185"
         inkscape:connector-curvature="0"
         sodipodi:nodetypes="cccccc"
         class="ext" /></g><g
       transform="matrix(-0.00421288,0.0158112,-0.0189735,-0.00505547,286.89702,249.25134)"
       style="fill:none;stroke:#000000;stroke-width:167.364;stroke-dasharray:none;stroke-opacity:1"
       id="g77193"><path
         style="display:inline;fill:none;fill-rule:evenodd;stroke:#000000;stroke-width:167.364;stroke-linecap:butt;stroke-linejoin:miter;stroke-miterlimit:4;stroke-dasharray:none;stroke-opacity:1"
         d="M 514.29434,663.75007 C 332.77511,662.6941 212.55561,799.43258 212.55561,1182.4491 c 0,383.0166 112.75163,526.6991 301.73873,526.6991 186.73329,0 299.75002,-143.701 299.75002,-526.699 0,-384.05117 -110.63301,-518.69913 -299.75002,-518.69913 z"
         id="path77189"
         inkscape:connector-curvature="0"
         sodipodi:nodetypes="ccscc"
         class="int" /><path
         style="display:inline;fill:none;fill-rule:evenodd;stroke:#000000;stroke-width:167.364;stroke-linecap:butt;stroke-linejoin:miter;stroke-miterlimit:4;stroke-dasharray:none;stroke-opacity:1"
         d="M 512.72445,1727.6206 C 286.39253,1726.1125 179.909,1511.2387 179.909,1182.4491 c 0,-328.9385 97.8919,-535.39573 290.95086,-538.6894 h 84.59879 c 193.08602,0 290.98835,209.67649 290.98835,538.6894 0,329.013 -106.70329,546.6842 -333.72255,545.1715 z"
         id="path77191"
         inkscape:connector-curvature="0"
         sodipodi:nodetypes="cccccc"
         class="ext" /></g><g
       transform="matrix(-0.00741682,0.0145854,-0.0175025,-0.00890021,275.78702,283.24634)"
       style="fill:none;stroke:#000000;stroke-width:167.364;stroke-dasharray:none;stroke-opacity:1"
       id="g77199"><path
         style="display:inline;fill:none;fill-rule:evenodd;stroke:#000000;stroke-width:167.364;stroke-linecap:butt;stroke-linejoin:miter;stroke-miterlimit:4;stroke-dasharray:none;stroke-opacity:1"
         d="M 514.29434,663.75007 C 332.77511,662.6941 212.55561,799.43258 212.55561,1182.4491 c 0,383.0166 112.75163,526.6991 301.73873,526.6991 186.73329,0 299.75002,-143.701 299.75002,-526.699 0,-384.05117 -110.63301,-518.69913 -299.75002,-518.69913 z"
         id="path77195"
         inkscape:connector-curvature="0"
         sodipodi:nodetypes="ccscc"
         class="int" /><path
         style="display:inline;fill:none;fill-rule:evenodd;stroke:#000000;stroke-width:167.364;stroke-linecap:butt;stroke-linejoin:miter;stroke-miterlimit:4;stroke-dasharray:none;stroke-opacity:1"
         d="M 512.72445,1727.6206 C 286.39253,1726.1125 179.909,1511.2387 179.909,1182.4491 c 0,-328.9385 97.8919,-535.39573 290.95086,-538.6894 h 84.59879 c 193.08602,0 290.98835,209.67649 290.98835,538.6894 0,329.013 -106.70329,546.6842 -333.72255,545.1715 z"
         id="path77197"
         inkscape:connector-curvature="0"
         sodipodi:nodetypes="cccccc"
         class="ext" /></g><g
       transform="matrix(-0.0106426,0.0124288,-0.0149147,-0.0127712,257.15502,314.52534)"
       style="fill:none;stroke:#000000;stroke-width:167.364;stroke-dasharray:none;stroke-opacity:1"
       id="g77205"><path
         style="display:inline;fill:none;fill-rule:evenodd;stroke:#000000;stroke-width:167.364;stroke-linecap:butt;stroke-linejoin:miter;stroke-miterlimit:4;stroke-dasharray:none;stroke-opacity:1"
         d="M 514.29434,663.75007 C 332.77511,662.6941 212.55561,799.43258 212.55561,1182.4491 c 0,383.0166 112.75163,526.6991 301.73873,526.6991 186.73329,0 299.75002,-143.701 299.75002,-526.699 0,-384.05117 -110.63301,-518.69913 -299.75002,-518.69913 z"
         id="path77201"
         inkscape:connector-curvature="0"
         sodipodi:nodetypes="ccscc"
         class="int" /><path
         style="display:inline;fill:none;fill-rule:evenodd;stroke:#000000;stroke-width:167.364;stroke-linecap:butt;stroke-linejoin:miter;stroke-miterlimit:4;stroke-dasharray:none;stroke-opacity:1"
         d="M 512.72445,1727.6206 C 286.39253,1726.1125 179.909,1511.2387 179.909,1182.4491 c 0,-328.9385 97.8919,-535.39573 290.95086,-538.6894 h 84.59879 c 193.08602,0 290.98835,209.67649 290.98835,538.6894 0,329.013 -106.70329,546.6842 -333.72255,545.1715 z"
         id="path77203"
         inkscape:connector-curvature="0"
         sodipodi:nodetypes="cccccc"
         class="ext" /></g><g
       transform="matrix(-0.0131242,0.00977219,-0.0117267,-0.0157491,232.02802,340.37434)"
       style="fill:none;stroke:#000000;stroke-width:167.364;stroke-dasharray:none;stroke-opacity:1"
       id="g77211"><path
         style="display:inline;fill:none;fill-rule:evenodd;stroke:#000000;stroke-width:167.364;stroke-linecap:butt;stroke-linejoin:miter;stroke-miterlimit:4;stroke-dasharray:none;stroke-opacity:1"
         d="M 514.29434,663.75007 C 332.77511,662.6941 212.55561,799.43258 212.55561,1182.4491 c 0,383.0166 112.75163,526.6991 301.73873,526.6991 186.73329,0 299.75002,-143.701 299.75002,-526.699 0,-384.05117 -110.63301,-518.69913 -299.75002,-518.69913 z"
         id="path77207"
         inkscape:connector-curvature="0"
         sodipodi:nodetypes="ccscc"
         class="int" /><path
         style="display:inline;fill:none;fill-rule:evenodd;stroke:#000000;stroke-width:167.364;stroke-linecap:butt;stroke-linejoin:miter;stroke-miterlimit:4;stroke-dasharray:none;stroke-opacity:1"
         d="M 512.72445,1727.6206 C 286.39253,1726.1125 179.909,1511.2387 179.909,1182.4491 c 0,-328.9385 97.8919,-535.39573 290.95086,-538.6894 h 84.59879 c 193.08602,0 290.98835,209.67649 290.98835,538.6894 0,329.013 -106.70329,546.6842 -333.72255,545.1715 z"
         id="path77209"
         inkscape:connector-curvature="0"
         sodipodi:nodetypes="cccccc"
         class="ext" /></g></g></svg>
