<?xml version="1.0" encoding="UTF-8" standalone="no"?>
<!-- Created with Inkscape (http://www.inkscape.org/) -->

<svg
   width="297mm"
   height="420mm"
   viewBox="0 0 297 420"
   version="1.1"
   id="svg8920"
   xml:space="preserve"
   inkscape:version="1.2.1 (9c6d41e410, 2022-07-14, custom)"
   sodipodi:docname="spiral_o_single.svg"
   xmlns:inkscape="http://www.inkscape.org/namespaces/inkscape"
   xmlns:sodipodi="http://sodipodi.sourceforge.net/DTD/sodipodi-0.dtd"
   xmlns="http://www.w3.org/2000/svg"
   xmlns:svg="http://www.w3.org/2000/svg"><sodipodi:namedview
     id="namedview8922"
     pagecolor="#ffffff"
     bordercolor="#666666"
     borderopacity="1.0"
     inkscape:showpageshadow="2"
     inkscape:pageopacity="0.0"
     inkscape:pagecheckerboard="0"
     inkscape:deskcolor="#d1d1d1"
     inkscape:document-units="mm"
     showgrid="false"
     showguides="true"
     inkscape:zoom="0.62958823"
     inkscape:cx="629.77671"
     inkscape:cy="1136.4571"
     inkscape:window-width="1050"
     inkscape:window-height="1048"
     inkscape:window-x="0"
     inkscape:window-y="26"
     inkscape:window-maximized="1"
     inkscape:current-layer="layer1"><inkscape:grid
       type="xygrid"
       id="grid9870"
       originx="0"
       originy="0" /></sodipodi:namedview><defs
     id="defs8917" /><g
     inkscape:label="Layer 1"
     inkscape:groupmode="layer"
     id="layer1"><path
       style="display:inline;fill:none;fill-rule:evenodd;stroke:#000000;stroke-width:0.1;stroke-linecap:butt;stroke-linejoin:miter;stroke-miterlimit:4;stroke-dasharray:none;stroke-opacity:1"
       d="m 131.14976,205.25365 c -0.33591,3.688 -4.68443,5.07521 -11.11776,4.54108 -6.43624,-0.53436 -10.34341,-2.46593 -10.1465,-5.6192 l 0.11453,-1.37943 c 0.26139,-3.14836 4.4966,-4.40409 10.9343,-3.8696 6.4377,0.53448 10.55235,2.62794 10.21543,6.32715 z"
       id="path76963"
       inkscape:connector-curvature="0"
       sodipodi:nodetypes="cccccc"
       class="ext" /><path
       style="display:inline;fill:none;fill-rule:evenodd;stroke:#000000;stroke-width:0.1;stroke-linecap:butt;stroke-linejoin:miter;stroke-miterlimit:4;stroke-dasharray:none;stroke-opacity:1"
       d="m 142.26544,195.06548 c -3.67528,0.45366 -5.95287,-3.50176 -6.79487,-9.90188 -0.84239,-6.40302 0.21683,-10.63077 3.34008,-11.10689 l 1.37231,-0.18054 c 3.13213,-0.41207 5.25721,3.4605 6.09978,9.86497 0.84258,6.40447 -0.33085,10.8693 -4.0173,11.32434 z"
       id="path76969"
       inkscape:connector-curvature="0"
       sodipodi:nodetypes="cccccc"
       class="ext" /><path
       style="display:inline;fill:none;fill-rule:evenodd;stroke:#000000;stroke-width:0.1;stroke-linecap:butt;stroke-linejoin:miter;stroke-miterlimit:4;stroke-dasharray:none;stroke-opacity:1"
       d="m 159.99887,203.16256 c -2.37182,-2.84381 -0.28032,-6.90059 4.64373,-11.07461 4.92628,-4.17591 9.05387,-5.57519 11.1456,-3.20759 l 0.89499,1.05581 c 2.0427,2.40975 -0.0617,6.29346 -4.98915,10.47031 -4.9274,4.17685 -9.31614,5.60853 -11.69517,2.75608 z"
       id="path76975"
       inkscape:connector-curvature="0"
       sodipodi:nodetypes="cccccc"
       class="ext" /><path
       style="display:inline;fill:none;fill-rule:evenodd;stroke:#000000;stroke-width:0.1;stroke-linecap:butt;stroke-linejoin:miter;stroke-miterlimit:4;stroke-dasharray:none;stroke-opacity:1"
       d="m 164.69676,223.62815 c 0.64822,-3.6461 5.09895,-4.6586 11.46359,-3.57949 6.36752,1.07959 10.09634,3.33633 9.63208,6.46145 l -0.23138,1.3647 c -0.5281,3.11475 -4.85474,4.00588 -11.22371,2.92604 -6.36897,-1.07984 -10.29077,-3.51553 -9.64058,-7.1727 z"
       id="path76981"
       inkscape:connector-curvature="0"
       sodipodi:nodetypes="cccccc"
       class="ext" /><path
       style="display:inline;fill:none;fill-rule:evenodd;stroke:#000000;stroke-width:0.1;stroke-linecap:butt;stroke-linejoin:miter;stroke-miterlimit:4;stroke-dasharray:none;stroke-opacity:1"
       d="m 153.45715,243.06965 c 2.95949,-2.2259 6.90606,0.0669 10.82734,5.19461 3.92305,5.13003 5.1131,9.32278 2.64331,11.29288 l -1.09948,0.8408 c -2.50942,1.919 -6.28249,-0.37804 -10.20642,-5.50922 -3.92395,-5.13119 -5.13322,-9.58641 -2.16475,-11.81907 z"
       id="path76987"
       inkscape:connector-curvature="0"
       sodipodi:nodetypes="cccccc"
       class="ext" /><path
       style="display:inline;fill:none;fill-rule:evenodd;stroke:#000000;stroke-width:0.1;stroke-linecap:butt;stroke-linejoin:miter;stroke-miterlimit:4;stroke-dasharray:none;stroke-opacity:1"
       d="m 131.37082,251.1437 c 3.70314,0.0286 5.44652,4.24693 5.44828,10.70236 0.002,6.45834 -1.59879,10.51234 -4.7575,10.57787 l -1.38417,3.8e-4 c -3.15917,8.6e-4 -4.76212,-4.11547 -4.76389,-10.57528 -0.002,-6.45981 1.7429,-10.73402 5.45728,-10.70533 z"
       id="path76993"
       inkscape:connector-curvature="0"
       sodipodi:nodetypes="cccccc"
       class="ext" /><path
       style="display:inline;fill:none;fill-rule:evenodd;stroke:#000000;stroke-width:0.1;stroke-linecap:butt;stroke-linejoin:miter;stroke-miterlimit:4;stroke-dasharray:none;stroke-opacity:1"
       d="m 107.71292,244.51145 c 3.11701,1.99969 2.34129,6.49774 -1.10098,11.95891 -3.44382,5.46363 -6.960302,8.03881 -9.66703,6.40916 l -1.170982,-0.73808 c -2.67262,-1.68458 -1.832537,-6.02144 1.612064,-11.48631 3.444598,-5.46488 7.200458,-8.14944 10.326928,-6.14368 z"
       id="path76999"
       inkscape:connector-curvature="0"
       sodipodi:nodetypes="cccccc"
       class="ext" /><path
       style="display:inline;fill:none;fill-rule:evenodd;stroke:#000000;stroke-width:0.1;stroke-linecap:butt;stroke-linejoin:miter;stroke-miterlimit:4;stroke-dasharray:none;stroke-opacity:1"
       d="m 91.279539,226.11182 c 1.599269,3.34001 -1.426109,6.75757 -7.225859,9.59183 -5.802376,2.83556 -10.147433,3.1763 -11.592385,0.36678 l -0.607721,-1.24357 c -1.387047,-2.83831 1.608295,-6.08492 7.411984,-8.92111 5.803691,-2.8362 10.409856,-3.14409 12.013981,0.20607 z"
       id="path77005"
       inkscape:connector-curvature="0"
       sodipodi:nodetypes="cccccc"
       class="ext" /><path
       style="display:inline;fill:none;fill-rule:evenodd;stroke:#000000;stroke-width:0.1;stroke-linecap:butt;stroke-linejoin:miter;stroke-miterlimit:4;stroke-dasharray:none;stroke-opacity:1"
       d="m 86.714309,201.46793 c -0.275196,3.69304 -4.600297,5.15159 -11.041515,4.72336 -6.444136,-0.42843 -10.38253,-2.29547 -10.237516,-5.45156 l 0.09182,-1.38113 c 0.209568,-3.15224 4.423536,-4.47747 10.869129,-4.04895 6.445595,0.42852 10.594115,2.45402 10.318082,6.15828 z"
       id="path77011"
       inkscape:connector-curvature="0"
       sodipodi:nodetypes="cccccc"
       class="ext" /><path
       style="display:inline;fill:none;fill-rule:evenodd;stroke:#000000;stroke-width:0.1;stroke-linecap:butt;stroke-linejoin:miter;stroke-miterlimit:4;stroke-dasharray:none;stroke-opacity:1"
       d="m 94.585724,177.01496 c -1.909668,3.17296 -6.428074,2.52629 -11.985506,-0.75827 -5.559949,-3.28604 -8.234699,-6.72738 -6.683186,-9.47964 l 0.704271,-1.19162 c 1.607411,-2.71973 5.966531,-2.00411 11.527737,1.28267 5.561208,3.28679 8.352151,6.96427 6.436684,10.14686 z"
       id="path77017"
       inkscape:connector-curvature="0"
       sodipodi:nodetypes="cccccc"
       class="ext" /><path
       style="display:inline;fill:none;fill-rule:evenodd;stroke:#000000;stroke-width:0.1;stroke-linecap:butt;stroke-linejoin:miter;stroke-miterlimit:4;stroke-dasharray:none;stroke-opacity:1"
       d="m 112.43618,158.8869 c -3.17944,1.89859 -6.85984,-0.80091 -10.21363,-6.31655 -3.355305,-5.51814 -4.092752,-9.8137 -1.42744,-11.51001 l 1.18266,-0.71912 c 2.69929,-1.64129 6.20672,1.04396 9.56278,6.56335 3.35607,5.51939 4.08472,10.07797 0.89563,11.98233 z"
       id="path77023"
       inkscape:connector-curvature="0"
       sodipodi:nodetypes="cccccc"
       class="ext" /><path
       style="display:inline;fill:none;fill-rule:evenodd;stroke:#000000;stroke-width:0.0999999;stroke-linecap:butt;stroke-linejoin:miter;stroke-miterlimit:4;stroke-dasharray:none;stroke-opacity:1"
       d="m 137.13639,150.36394 c -3.68026,0.4118 -5.91271,-3.56936 -6.68181,-9.97875 -0.76944,-6.4123 0.33786,-10.62778 3.46638,-11.06831 l 1.3743,-0.16491 c 3.13666,-0.37639 5.21755,3.52018 5.98717,9.93393 0.76962,6.41374 -0.45459,10.865 -4.14604,11.27804 z"
       id="path77029"
       inkscape:connector-curvature="0"
       sodipodi:nodetypes="cccccc"
       class="ext" /><path
       style="display:inline;fill:none;fill-rule:evenodd;stroke:#000000;stroke-width:0.0999999;stroke-linecap:butt;stroke-linejoin:miter;stroke-miterlimit:4;stroke-dasharray:none;stroke-opacity:1"
       d="m 163.1047,153.00357 c -3.51266,-1.17289 -3.86545,-5.72369 -1.86991,-11.86301 1.99644,-6.14211 4.77274,-9.50207 7.7968,-8.58712 l 1.31639,0.42788 c 3.0045,0.97658 3.2553,5.38693 1.25841,11.53043 -1.99689,6.14349 -4.97836,9.66828 -8.50169,8.49182 z"
       id="path77035"
       inkscape:connector-curvature="0"
       sodipodi:nodetypes="cccccc"
       class="ext" /><path
       style="display:inline;fill:none;fill-rule:evenodd;stroke:#000000;stroke-width:0.0999999;stroke-linecap:butt;stroke-linejoin:miter;stroke-miterlimit:4;stroke-dasharray:none;stroke-opacity:1"
       d="m 186.55272,165.88238 c -2.84341,-2.37264 -1.51304,-6.73889 2.58312,-11.72834 4.09802,-4.99171 7.90807,-7.10843 10.39052,-5.1541 l 1.06984,0.8783 c 2.44176,2.0046 1.06762,6.20289 -3.03132,11.19573 -4.09894,4.99284 -8.16012,7.18826 -11.01216,4.80841 z"
       id="path77041"
       inkscape:connector-curvature="0"
       sodipodi:nodetypes="cccccc"
       class="ext" /><path
       style="display:inline;fill:none;fill-rule:evenodd;stroke:#000000;stroke-width:0.1;stroke-linecap:butt;stroke-linejoin:miter;stroke-miterlimit:4;stroke-dasharray:none;stroke-opacity:1"
       d="m 202.81365,186.50634 c -1.63043,-3.32533 1.36332,-6.77122 7.13703,-9.65959 5.77633,-2.88969 10.11846,-3.27087 11.58963,-0.47464 l 0.61932,1.238 c 1.41353,2.82556 -1.55178,6.10022 -7.32941,8.99055 -5.77764,2.89034 -10.3812,3.2411 -12.01657,-0.0943 z"
       id="path77047"
       inkscape:connector-curvature="0"
       sodipodi:nodetypes="cccccc"
       class="ext" /><path
       style="display:inline;fill:none;fill-rule:evenodd;stroke:#000000;stroke-width:0.0999999;stroke-linecap:butt;stroke-linejoin:miter;stroke-miterlimit:4;stroke-dasharray:none;stroke-opacity:1"
       d="m 210.12854,212.45736 c -0.37475,-3.68423 3.62867,-5.87651 10.04549,-6.58109 6.41973,-0.7049 10.62387,0.44475 11.03292,3.57754 l 0.15107,1.37589 c 0.34481,3.1403 -3.5725,5.18188 -9.99368,5.88694 -6.42119,0.70506 -10.85992,-0.56387 -11.2358,-4.25928 z"
       id="path77053"
       inkscape:connector-curvature="0"
       sodipodi:nodetypes="cccccc"
       class="ext" /><path
       style="display:inline;fill:none;fill-rule:evenodd;stroke:#000000;stroke-width:0.1;stroke-linecap:butt;stroke-linejoin:miter;stroke-miterlimit:4;stroke-dasharray:none;stroke-opacity:1"
       d="m 207.49656,238.98807 c 1.03827,-3.55477 5.57234,-4.0806 11.78321,-2.32031 6.21368,1.76109 9.67693,4.40741 8.87781,7.46412 l -0.37744,1.33173 c -0.86146,3.0395 -5.25906,3.45808 -11.47415,1.69659 -6.21509,-1.76149 -9.85086,-4.60656 -8.80943,-8.17213 z"
       id="path77059"
       inkscape:connector-curvature="0"
       sodipodi:nodetypes="cccccc"
       class="ext" /><path
       style="display:inline;fill:none;fill-rule:evenodd;stroke:#000000;stroke-width:0.1;stroke-linecap:butt;stroke-linejoin:miter;stroke-miterlimit:4;stroke-dasharray:none;stroke-opacity:1"
       d="m 195.73083,263.61523 c 2.12237,-3.03479 6.5859,-2.08034 11.90545,1.57691 5.32197,3.65892 7.75488,7.27527 6.01862,9.91487 l -0.78419,1.14062 c -1.7898,2.60332 -6.08969,1.59099 -11.41286,-2.06875 -5.32317,-3.65975 -7.85583,-7.51964 -5.72702,-10.56365 z"
       id="path77065"
       inkscape:connector-curvature="0"
       sodipodi:nodetypes="cccccc"
       class="ext" /><path
       style="display:inline;fill:none;fill-rule:evenodd;stroke:#000000;stroke-width:0.0999999;stroke-linecap:butt;stroke-linejoin:miter;stroke-miterlimit:4;stroke-dasharray:none;stroke-opacity:1"
       d="m 176.68217,282.37279 c 3.09503,-2.03393 6.88862,0.50483 10.47712,5.87146 3.59014,5.36907 4.51195,9.6293 1.92191,11.43898 l -1.15072,0.76945 c -2.62635,1.75617 -6.24649,-0.77581 -9.83744,-6.14609 -3.59094,-5.37028 -4.51529,-9.89369 -1.41087,-11.9338 z"
       id="path77071"
       inkscape:connector-curvature="0"
       sodipodi:nodetypes="cccccc"
       class="ext" /><path
       style="display:inline;fill:none;fill-rule:evenodd;stroke:#000000;stroke-width:0.1;stroke-linecap:butt;stroke-linejoin:miter;stroke-miterlimit:4;stroke-dasharray:none;stroke-opacity:1"
       d="m 151.82104,293.76718 c 3.57924,-0.95143 6.37595,2.65623 8.08429,8.88199 1.70911,6.22859 1.23714,10.56179 -1.79212,11.46008 l -1.33492,0.3663 c -3.0468,0.83604 -5.6811,-2.71037 -7.3906,-8.94036 -1.7095,-6.22999 -1.15676,-10.81369 2.43335,-11.76801 z"
       id="path77077"
       inkscape:connector-curvature="0"
       sodipodi:nodetypes="cccccc"
       class="ext" /><path
       style="display:inline;fill:none;fill-rule:evenodd;stroke:#000000;stroke-width:0.1;stroke-linecap:butt;stroke-linejoin:miter;stroke-miterlimit:4;stroke-dasharray:none;stroke-opacity:1"
       d="m 124.49138,296.26729 c 3.69791,0.1994 5.24484,4.49368 4.9488,10.94233 -0.29617,6.45157 -2.08205,10.42743 -5.24045,10.34717 l -1.38271,-0.0635 c -3.15588,-0.14487 -4.56724,-4.33078 -4.271,-10.78381 0.29624,-6.45303 2.23623,-10.64222 5.94536,-10.44221 z"
       id="path77083"
       inkscape:connector-curvature="0"
       sodipodi:nodetypes="cccccc"
       class="ext" /><path
       style="display:inline;fill:none;fill-rule:evenodd;stroke:#000000;stroke-width:0.1;stroke-linecap:butt;stroke-linejoin:miter;stroke-miterlimit:4;stroke-dasharray:none;stroke-opacity:1"
       d="m 97.905549,290.12491 c 3.434001,1.3864 3.506641,5.95027 1.137847,11.95545 -2.369867,6.0079 -5.347261,9.19101 -8.309425,8.09208 l -1.287627,-0.50792 c -2.938847,-1.15925 -2.918326,-5.57667 -0.547923,-11.58593 2.370404,-6.00926 5.562702,-9.34429 9.007128,-7.95368 z"
       id="path77089"
       inkscape:connector-curvature="0"
       sodipodi:nodetypes="cccccc"
       class="ext" /><path
       style="display:inline;fill:none;fill-rule:evenodd;stroke:#000000;stroke-width:0.1;stroke-linecap:butt;stroke-linejoin:miter;stroke-miterlimit:4;stroke-dasharray:none;stroke-opacity:1"
       d="m 74.333368,276.36605 c 2.801179,2.4223 1.394166,6.76444 -2.789155,11.681 -4.185216,4.91878 -8.031905,6.96811 -10.479558,4.9704 l -1.054202,-0.89699 c -2.406084,-2.04725 -0.958266,-6.22069 3.227897,-11.14058 4.186164,-4.9199 8.285332,-7.04349 11.095018,-4.61383 z"
       id="path77095"
       inkscape:connector-curvature="0"
       sodipodi:nodetypes="cccccc"
       class="ext" /><path
       style="display:inline;fill:none;fill-rule:evenodd;stroke:#000000;stroke-width:0.1;stroke-linecap:butt;stroke-linejoin:miter;stroke-miterlimit:4;stroke-dasharray:none;stroke-opacity:1"
       d="m 55.798911,255.70762 c 2.00686,3.11265 -0.564897,6.88396 -5.962636,10.42555 -5.400183,3.5432 -9.668296,4.42783 -11.45532,1.82211 l -0.759382,-1.15738 c -1.733195,-2.64157 0.830266,-6.23951 6.231671,-9.7835 5.401406,-3.544 9.932713,-4.42888 11.945667,-1.30678 z"
       id="path77101"
       inkscape:connector-curvature="0"
       sodipodi:nodetypes="cccccc"
       class="ext" /><path
       style="display:inline;fill:none;fill-rule:evenodd;stroke:#000000;stroke-width:0.0999999;stroke-linecap:butt;stroke-linejoin:miter;stroke-miterlimit:4;stroke-dasharray:none;stroke-opacity:1"
       d="m 44.573497,230.71461 c 0.926776,3.58569 -2.700045,6.35751 -8.937414,8.02297 -6.240194,1.66621 -10.57005,1.16444 -11.447468,-1.87093 l -0.357106,-1.33741 c -0.815049,-3.05248 2.749398,-5.66231 8.991003,-7.3289 6.241607,-1.66659 10.821395,-1.08232 11.750985,2.51427 z"
       id="path77107"
       inkscape:connector-curvature="0"
       sodipodi:nodetypes="cccccc"
       class="ext" /><path
       style="display:inline;fill:none;fill-rule:evenodd;stroke:#000000;stroke-width:0.1;stroke-linecap:butt;stroke-linejoin:miter;stroke-miterlimit:4;stroke-dasharray:none;stroke-opacity:1"
       d="m 41.198591,203.05258 c -0.08538,3.70255 -4.330283,5.38118 -10.785475,5.28395 -6.458115,-0.0973 -10.487408,-1.75992 -10.504499,-4.91951 l 0.02085,-1.38412 c 0.04758,-3.15906 4.188328,-4.69882 10.647904,-4.60153 6.459578,0.0973 10.706866,1.90742 10.621223,5.62121 z"
       id="path77113"
       inkscape:connector-curvature="0"
       sodipodi:nodetypes="cccccc"
       class="ext" /><path
       style="display:inline;fill:none;fill-rule:evenodd;stroke:#000000;stroke-width:0.1;stroke-linecap:butt;stroke-linejoin:miter;stroke-miterlimit:4;stroke-dasharray:none;stroke-opacity:1"
       d="m 45.822739,175.52742 c -1.079523,3.54248 -5.619397,4.01557 -11.809387,2.18321 -6.192794,-1.83319 -9.625052,-4.51959 -8.790456,-7.56681 l 0.392893,-1.32725 c 0.896731,-3.02929 5.298904,-3.39673 11.493098,-1.56312 6.194197,1.83361 9.796654,4.72075 8.713852,8.27397 z"
       id="path77119"
       inkscape:connector-curvature="0"
       sodipodi:nodetypes="cccccc"
       class="ext" /><path
       style="display:inline;fill:none;fill-rule:evenodd;stroke:#000000;stroke-width:0.0999999;stroke-linecap:butt;stroke-linejoin:miter;stroke-miterlimit:4;stroke-dasharray:none;stroke-opacity:1"
       d="m 57.709989,150.36006 c -2.017098,3.10576 -6.510725,2.30489 -11.952522,-1.16785 -5.444261,-3.47432 -7.999706,-7.00513 -6.354945,-9.70269 l 0.744625,-1.16682 c 1.699512,-2.66314 6.031588,-1.79882 11.477081,1.67628 5.445494,3.4751 8.108985,7.2459 6.085761,10.36108 z"
       id="path77125"
       inkscape:connector-curvature="0"
       sodipodi:nodetypes="cccccc"
       class="ext" /><path
       style="display:inline;fill:none;fill-rule:evenodd;stroke:#000000;stroke-width:0.0999999;stroke-linecap:butt;stroke-linejoin:miter;stroke-miterlimit:4;stroke-dasharray:none;stroke-opacity:1"
       d="m 75.982502,129.33161 c -2.791189,2.43422 -6.893585,0.43238 -11.175642,-4.39909 -4.283996,-4.83365 -5.774098,-8.9299 -3.45289,-11.07357 l 1.035954,-0.91815 c 2.364435,-2.09556 6.294062,-0.077 10.579027,4.75779 4.284967,4.83474 5.813216,9.19141 3.013551,11.63302 z"
       id="path77131"
       inkscape:connector-curvature="0"
       sodipodi:nodetypes="cccccc"
       class="ext" /><path
       style="display:inline;fill:none;fill-rule:evenodd;stroke:#000000;stroke-width:0.1;stroke-linecap:butt;stroke-linejoin:miter;stroke-miterlimit:4;stroke-dasharray:none;stroke-opacity:1"
       d="M 99.306391,114.25205 C 95.942047,115.80034 92.5707,112.72288 89.824945,106.88 87.077947,101.03446 86.803483,96.68428 89.634987,95.282207 l 1.252824,-0.588742 c 2.859411,-1.34373 6.060276,1.701085 8.807895,7.547945 2.747624,5.84685 2.985244,10.45764 -0.389315,12.01064 z"
       id="path77137"
       inkscape:connector-curvature="0"
       sodipodi:nodetypes="cccccc"
       class="ext" /><path
       style="display:inline;fill:none;fill-rule:evenodd;stroke:#000000;stroke-width:0.1;stroke-linecap:butt;stroke-linejoin:miter;stroke-miterlimit:4;stroke-dasharray:none;stroke-opacity:1"
       d="m 125.83415,106.01405 c -3.66447,0.53647 -6.0309,-3.36697 -7.01711,-9.7471 -0.98665,-6.383019 -0.0229,-10.63399 3.08908,-11.180469 l 1.36802,-0.211462 c 3.12233,-0.482634 5.33441,3.341403 6.32129,9.725866 0.98688,6.384465 -0.0857,10.875065 -3.76128,11.413165 z"
       id="path77143"
       inkscape:connector-curvature="0"
       sodipodi:nodetypes="cccccc"
       class="ext" /><path
       style="display:inline;fill:none;fill-rule:evenodd;stroke:#000000;stroke-width:0.1;stroke-linecap:butt;stroke-linejoin:miter;stroke-miterlimit:4;stroke-dasharray:none;stroke-opacity:1"
       d="m 154.0345,105.08005 c -3.68514,-0.36878 -5.03364,-4.72981 -4.44217,-11.158601 0.59173,-6.431702 2.55818,-10.321791 5.70981,-10.096779 l 1.37845,0.126822 c 3.14614,0.289453 4.36417,4.536001 3.77231,10.969157 -0.59187,6.433161 -2.72207,10.529301 -6.4184,10.159401 z"
       id="path77149"
       inkscape:connector-curvature="0"
       sodipodi:nodetypes="cccccc"
       class="ext" /><path
       style="display:inline;fill:none;fill-rule:evenodd;stroke:#000000;stroke-width:0.1;stroke-linecap:butt;stroke-linejoin:miter;stroke-miterlimit:4;stroke-dasharray:none;stroke-opacity:1"
       d="m 181.42574,111.2688 c -3.46845,-1.29854 -3.65737,-5.85939 -1.44219,-11.923388 2.21617,-6.066745 5.1117,-9.324909 8.10111,-8.301735 l 1.30024,0.474975 c 2.96764,1.084072 3.05968,5.500887 0.843,11.569008 -2.21668,6.06811 -5.32318,9.48363 -8.80216,8.18114 z"
       id="path77155"
       inkscape:connector-curvature="0"
       sodipodi:nodetypes="cccccc"
       class="ext" /><path
       style="display:inline;fill:none;fill-rule:evenodd;stroke:#000000;stroke-width:0.0999999;stroke-linecap:butt;stroke-linejoin:miter;stroke-miterlimit:4;stroke-dasharray:none;stroke-opacity:1"
       d="m 206.68534,124.11936 c -3.07242,-2.06796 -2.1978,-6.54815 1.36407,-11.93257 3.56349,-5.38686 7.13604,-7.88417 9.80639,-6.19522 l 1.15452,0.76374 c 2.63505,1.74313 1.69963,6.06073 -1.86466,11.44881 -3.5643,5.38808 -7.37858,7.98949 -10.46032,5.91524 z"
       id="path77161"
       inkscape:connector-curvature="0"
       sodipodi:nodetypes="cccccc"
       class="ext" /><path
       style="display:inline;fill:none;fill-rule:evenodd;stroke:#000000;stroke-width:0.1;stroke-linecap:butt;stroke-linejoin:miter;stroke-miterlimit:4;stroke-dasharray:none;stroke-opacity:1"
       d="m 227.70426,142.6091 c -2.41909,-2.80433 -0.39507,-6.89582 4.45951,-11.15164 4.85677,-4.25775 8.96103,-5.72564 11.09211,-3.39285 l 0.91254,1.04091 c 2.08274,2.37575 0.0429,6.29438 -4.81498,10.55309 -4.85787,4.25871 -9.22275,5.76334 -11.64918,2.95049 z"
       id="path77167"
       inkscape:connector-curvature="0"
       sodipodi:nodetypes="cccccc"
       class="ext" /><path
       style="display:inline;fill:none;fill-rule:evenodd;stroke:#000000;stroke-width:0.0999999;stroke-linecap:butt;stroke-linejoin:miter;stroke-miterlimit:4;stroke-dasharray:none;stroke-opacity:1"
       d="m 243.44904,165.85112 c -1.6199,-3.33046 1.38474,-6.76686 7.16756,-9.63696 5.78543,-2.8714 10.12875,-3.23884 11.59106,-0.43796 l 0.6154,1.23995 c 1.40458,2.83002 -1.57107,6.09528 -7.35781,8.96732 -5.78675,2.87205 -10.3914,3.20823 -12.01621,-0.13235 z"
       id="path77173"
       inkscape:connector-curvature="0"
       sodipodi:nodetypes="cccccc"
       class="ext" /><path
       style="display:inline;fill:none;fill-rule:evenodd;stroke:#000000;stroke-width:0.1;stroke-linecap:butt;stroke-linejoin:miter;stroke-miterlimit:4;stroke-dasharray:none;stroke-opacity:1"
       d="m 253.01767,192.51119 c -0.79813,-3.61652 2.92537,-6.25705 9.21823,-7.69869 6.29572,-1.4423 10.6049,-0.78621 11.37336,2.27856 l 0.30911,1.34932 c 0.70552,3.07964 -2.94986,5.56051 -9.247,7.00314 -6.29715,1.44262 -10.85315,0.69517 -11.6537,-2.93233 z"
       id="path77179"
       inkscape:connector-curvature="0"
       sodipodi:nodetypes="cccccc"
       class="ext" /><path
       style="display:inline;fill:none;fill-rule:evenodd;stroke:#000000;stroke-width:0.0999999;stroke-linecap:butt;stroke-linejoin:miter;stroke-miterlimit:4;stroke-dasharray:none;stroke-opacity:1"
       d="m 255.79924,220.56655 c 0.11587,-3.70174 4.37444,-5.34536 10.82862,-5.19499 6.45709,0.15044 10.47256,1.84622 10.46363,5.00587 l -0.0322,1.3839 c -0.0736,3.15857 -4.22687,4.6642 -10.68543,4.51373 -6.45856,-0.15048 -10.6908,-1.99553 -10.57458,-5.70851 z"
       id="path77185"
       inkscape:connector-curvature="0"
       sodipodi:nodetypes="cccccc"
       class="ext" /><path
       style="display:inline;fill:none;fill-rule:evenodd;stroke:#000000;stroke-width:0.1;stroke-linecap:butt;stroke-linejoin:miter;stroke-miterlimit:4;stroke-dasharray:none;stroke-opacity:1"
       d="m 251.95796,248.62419 c 0.98213,-3.57095 5.50764,-4.16829 11.74593,-2.50611 6.24111,1.66294 9.74592,4.25447 8.99508,7.32361 l -0.35641,1.33761 c -0.81344,3.05292 -5.20419,3.54086 -11.44672,1.87755 -6.24253,-1.66332 -9.92298,-4.45086 -8.93788,-8.03266 z"
       id="path77191"
       inkscape:connector-curvature="0"
       sodipodi:nodetypes="cccccc"
       class="ext" /><path
       style="display:inline;fill:none;fill-rule:evenodd;stroke:#000000;stroke-width:0.1;stroke-linecap:butt;stroke-linejoin:miter;stroke-miterlimit:4;stroke-dasharray:none;stroke-opacity:1"
       d="m 241.74656,275.34845 c 1.70505,-3.28772 6.25565,-2.92841 12.01029,-0.002 5.75725,2.92762 8.64472,6.19293 7.27048,9.03808 l -0.62745,1.23391 c -1.43209,2.81624 -5.82807,2.37802 -11.58662,-0.55027 -5.75855,-2.92828 -8.77694,-6.42191 -7.0667,-9.71961 z"
       id="path77197"
       inkscape:connector-curvature="0"
       sodipodi:nodetypes="cccccc"
       class="ext" /><path
       style="display:inline;fill:none;fill-rule:evenodd;stroke:#000000;stroke-width:0.1;stroke-linecap:butt;stroke-linejoin:miter;stroke-miterlimit:4;stroke-dasharray:none;stroke-opacity:1"
       d="m 225.93136,298.8341 c 2.43125,-2.79377 6.76929,-1.37304 11.67309,2.826 4.90602,4.20094 6.94344,8.05432 4.93791,10.49588 l -0.90035,1.05146 c -2.05493,2.39983 -6.22413,0.93882 -11.13126,-3.26307 -4.90713,-4.20189 -7.01803,-8.30801 -4.57939,-11.11027 z"
       id="path77203"
       inkscape:connector-curvature="0"
       sodipodi:nodetypes="cccccc"
       class="ext" /><path
       style="display:inline;fill:none;fill-rule:evenodd;stroke:#000000;stroke-width:0.1;stroke-linecap:butt;stroke-linejoin:miter;stroke-miterlimit:4;stroke-dasharray:none;stroke-opacity:1"
       d="m 205.03963,318.17631 c 2.98811,-2.18801 6.90539,0.15549 10.761,5.33363 3.85737,5.18048 4.99367,9.38861 2.49855,11.3271 l -1.11029,0.82671 c -2.5341,1.88687 -6.2778,-0.45862 -10.13604,-5.64028 -3.85823,-5.18166 -5.0104,-9.65251 -2.01322,-11.84716 z"
       id="path77209"
       inkscape:connector-curvature="0"
       sodipodi:nodetypes="cccccc"
       class="ext" /></g></svg>
