<?xml version="1.0" encoding="utf-8" ?>
<svg xmlns="http://www.w3.org/2000/svg" xmlns:cc="http://creativecommons.org/ns" xmlns:dc="http://purl.org/dc/elements/1.1/" xmlns:ev="http://www.w3.org/2001/xml-events" xmlns:inkscape="http://www.inkscape.org/namespaces/inkscape" xmlns:rdf="http://www.w3.org/1999/02/22-rdf-syntax-ns" xmlns:sodipodi="http://sodipodi.sourceforge.net/DTD/sodipodi-0.dtd" xmlns:xlink="http://www.w3.org/1999/xlink" baseProfile="tiny" height="42.00002268cm" version="1.2" viewBox="0 0 1122.5202912 1587.4024319999999" width="29.70001604cm">
  <metadata>
    <rdf:RDF>
      <cc:Work>
        <dc:format>image/svg+xml</dc:format>
        <dc:source>vpype read specimen.svg linesimplify -t 15 write spork_15.svg
</dc:source>
        <dc:date>2022-11-02T16:35:02.340589</dc:date>
      </cc:Work>
    </rdf:RDF>
  </metadata>
  <defs/>
  <g fill="none" id="layer1" inkscape:groupmode="layer" inkscape:label="Layer 1" stroke="#000000" stroke-width="1.0" style="display:inline">
    <polyline points="520.6425,913.0438 565.132,913.0438 523.7348,992.0822 568.2242,992.0822"/>
    <polyline points="520.6099,914.5281 562.0071,914.5281 526.7944,989.8558 568.1916,989.8558"/>
    <line x1="468.0023" x2="436.5992" y1="758.7552" y2="866.3662"/>
    <line x1="471.2471" x2="439.8511" y1="758.7552" y2="866.3662"/>
    <line x1="431.7371" x2="451.4396" y1="758.7552" y2="825.3057"/>
    <line x1="428.4688" x2="451.4396" y1="758.7552" y2="825.3057"/>
    <line x1="829.4199" x2="790.4269" y1="841.498" y2="755.0382"/>
    <line x1="826.3188" x2="793.6683" y1="841.5012" y2="755.0382"/>
    <line x1="790.4269" x2="829.4199" y1="841.498" y2="755.0382"/>
    <line x1="793.528" x2="826.1785" y1="841.5012" y2="755.0382"/>
    <polyline points="360.5744,758.752 347.3478,841.5011 328.9458,762.4628 306.327,841.5011 293.1004,758.752"/>
    <polyline points="357.5803,758.752 346.4636,841.5011 331.3547,762.4628 307.3348,841.5011 296.0944,758.752"/>
    <polyline points="656.8022,909.205 636.5253,991.9541 611.7162,909.205"/>
    <polyline points="653.8082,909.205 635.1463,991.9541 614.7103,909.205"/>
    <line x1="626.2174" x2="628.5532" y1="755.2162" y2="841.5011"/>
    <line x1="628.5532" x2="628.5532" y1="755.2162" y2="841.5011"/>
    <polyline points="628.6155,815.08 595.362,833.4828 592.117,755.2155"/>
    <polyline points="626.1027,820.756 596.7287,830.1924 594.3667,755.2169"/>
    <polyline points="703.1565,724.5954 703.8182,833.802 725.707,841.5011"/>
    <polyline points="705.3931,724.5954 705.673,832.3321 725.707,837.7904"/>
    <line x1="691.4683" x2="724.0241" y1="762.7815" y2="762.7815"/>
    <line x1="691.3615" x2="723.9613" y1="762.7815" y2="762.7815"/>
    <polyline points="386.4594,665.7472 413.6505,682.555 386.813,621.743 405.5932,611.6771 416.6068,631.2442"/>
    <polyline points="383.5747,665.7472 414.1864,685.5305 384.9663,620.9772 406.5667,609.9309 419.3544,631.2433"/>
    <line x1="568.413" x2="566.0772" y1="689.9436" y2="603.4838"/>
    <line x1="566.0772" x2="566.0772" y1="689.9436" y2="603.4838"/>
    <line x1="566.0771" x2="594.2334" y1="626.7396" y2="607.1945"/>
    <line x1="568.3876" x2="594.2334" y1="622.3081" y2="608.6788"/>
    <line x1="739.4708" x2="737.0946" y1="910.4463" y2="1018.0572"/>
    <line x1="739.4708" x2="739.4708" y1="910.4463" y2="1018.0572"/>
    <polyline points="739.439,975.3961 713.7645,993.0514 699.9072,953.8824 712.7984,914.7175 739.476,937.6414"/>
    <polyline points="737.1111,980.2945 712.6189,989.6324 702.4006,953.7704 712.234,917.8765 737.0826,929.445"/>
    <line x1="444.2606" x2="441.8845" y1="713.3211" y2="605.7102"/>
    <line x1="441.8845" x2="441.8845" y1="713.3211" y2="605.7102"/>
    <polyline points="441.8723,623.7765 470.7934,610.7257 480.8481,646.3586 469.0985,687.5918 442.1658,675.3519"/>
    <polyline points="444.2486,621.1818 470.1965,613.2683 477.9015,648.5339 468.4852,684.3115 443.9305,677.7724"/>
    <polygon points="523.5337,610.989 504.8725,649.484 523.5337,688.5726 542.0718,649.484"/>
    <polygon points="523.4366,689.9436 502.966,643.8894 526.6393,609.517 543.9849,654.3249"/>
    <line x1="667.2406" x2="664.9055" y1="689.9429" y2="603.4831"/>
    <line x1="664.9048" x2="664.9048" y1="689.9429" y2="603.4831"/>
    <polyline points="664.8425,626.8136 698.6107,613.0541 701.341,689.9436"/>
    <polyline points="667.3553,622.1766 696.7997,615.2269 699.0913,689.9421"/>
    <line x1="761.5332" x2="759.1973" y1="992.0814" y2="905.6216"/>
    <line x1="759.1973" x2="759.1973" y1="992.0814" y2="905.6216"/>
    <polyline points="759.2063,922.1571 790.4731,916.4062 792.7886,992.0821"/>
    <polyline points="761.5242,918.9365 788.7586,919.0602 790.539,992.0807"/>
    <polyline points="792.3177,922.6296 823.4492,916.3565 825.7891,992.0814"/>
    <polyline points="790.2528,926.2146 821.1701,917.7092 823.5403,992.0814"/>
    <line x1="584.1281" x2="595.8123" y1="875.1765" y2="992.0822"/>
    <line x1="586.3648" x2="595.8123" y1="875.1765" y2="988.3715"/>
    <line x1="611.464" x2="611.464" y1="689.9436" y2="569.3451"/>
    <line x1="609.1281" x2="609.1281" y1="689.9436" y2="569.3451"/>
    <line x1="641.4587" x2="611.4259" y1="603.4838" y2="648.2893"/>
    <line x1="644.4273" x2="609.1724" y1="603.4838" y2="653.355"/>
    <line x1="621.2299" x2="642.8596" y1="634.8832" y2="689.9436"/>
    <line x1="622.7585" x2="645.8567" y1="634.5118" y2="689.9436"/>
    <line x1="682.0326" x2="666.5216" y1="909.205" y2="1013.2463"/>
    <line x1="679.7959" x2="666.5268" y1="909.205" y2="1009.3733"/>
    <line x1="682.0412" x2="682.0412" y1="894.7008" y2="875.1748"/>
    <line x1="679.829" x2="679.829" y1="894.7008" y2="875.1748"/>
    <line x1="725.6782" x2="725.6782" y1="689.9436" y2="602.4372"/>
    <line x1="723.3423" x2="723.3423" y1="689.9436" y2="602.4372"/>
    <line x1="725.6782" x2="725.6782" y1="588.9795" y2="569.4535"/>
    <line x1="723.3423" x2="723.3423" y1="588.9795" y2="569.4535"/>
    <line x1="378.6628" x2="378.6628" y1="841.5019" y2="720.9035"/>
    <line x1="376.3269" x2="376.3269" y1="841.5019" y2="720.9035"/>
    <polyline points="376.2646,778.3726 410.0328,764.6131 412.7631,841.5026"/>
    <polyline points="378.7775,773.7357 408.2218,766.7859 410.5134,841.5012"/>
    <polyline points="677.5894,755.2155 675.7928,846.5003 643.4989,857.444"/>
    <polyline points="677.5894,755.2155 673.7107,845.1018 644.0909,853.8491"/>
    <polyline points="677.5905,813.1352 653.0126,833.4776 642.4366,795.9799 653.2045,759.4537 677.5812,782.4106"/>
    <polyline points="675.3242,818.9957 652.821,830.5285 644.93,797.7974 652.2571,762.7452 675.3574,771.9189"/>
    <polyline points="759.3678,689.9436 759.9542,581.1156 781.0633,572.9899"/>
    <polyline points="761.6045,689.9436 761.9243,581.8453 781.0578,575.6756"/>
    <line x1="747.6796" x2="780.2355" y1="607.4652" y2="607.4652"/>
    <line x1="747.5729" x2="780.1726" y1="607.4652" y2="607.4652"/>
    <polyline points="829.1716,673.8926 807.268,689.5821 789.0917,666.015 792.3417,619.7221 818.2672,611.6339 829.1628,648.575 787.9776,648.575"/>
    <polyline points="826.2438,673.8982 806.5669,687.9583 790.7874,663.4303 794.1431,620.233 817.8034,613.8739 827.0509,648.575 790.0862,648.575"/>
    <line x1="412.7578" x2="410.3817" y1="992.0822" y2="871.5027"/>
    <line x1="412.7578" x2="412.7579" y1="992.0822" y2="871.5027"/>
    <polyline points="412.7261,970.5954 387.0516,988.2507 373.1943,949.0817 386.0855,909.9168 412.7631,932.8407"/>
    <polyline points="410.3982,975.4939 385.906,984.8317 375.6877,948.9697 385.5211,913.0758 410.3697,924.199"/>
    <polyline points="347.3155,964.1211 322.2799,991.4167 304.2158,952.1932 319.5108,912.2073 347.2847,936.4846"/>
    <polyline points="344.3948,964.1207 321.6023,989.6904 306.7102,951.5628 320.7479,913.9516 344.3117,936.5509"/>
    <line x1="539.8142" x2="542.1904" y1="841.5012" y2="720.9217"/>
    <line x1="539.8142" x2="539.8142" y1="841.5012" y2="720.9217"/>
    <polyline points="539.781,772.8791 568.893,760.2088 578.2862,797.4301 566.5296,837.2624 539.672,824.1763"/>
    <polyline points="542.1733,770.3319 567.8781,762.5284 575.34,796.8285 566.6018,833.4261 542.1814,827.6587"/>
    <polyline points="743.4563,779.1716 771.7681,767.1709 776.5925,841.4988"/>
    <polyline points="740.3605,779.1716 773.6457,765.26 776.5925,841.4988"/>
    <polyline points="776.7037,790.2237 739.4308,817.0293 753.8179,839.0689 776.5833,821.7373"/>
    <polyline points="774.1692,790.4191 742.3123,817.6774 753.5477,836.3593 774.1887,824.9362"/>
  </g>
</svg>
